<?xml version="1.0" encoding="UTF-8"?><FP xmlns="http://www.lefebvre-sarrut.eu/ns/el/fichesGB_FP" xmlns:xf="http://www.lefebvre-sarrut.eu/ns/xmlfirst" GB="GB25" MR="On" Titre="8" Theme="IDFPT08" Position="Corps" Maj="18-01" Eddversion="GB59_FP_EDD_47">
               <Tifp>Les démarches 
collectives de VAE</Tifp>
               <INTROFP>
                  <Al>Si la VAE est, en principe, une démarche individuelle, laissée à l’initiative du salarié, elle peut aussi prendre une forme collective. Elle devient alors un outil de gestion des ressources humaines et un moyen pour l’entreprise de professionnaliser et de développer l’employabilité de ses salariés. Le bon déroulement et la réussite du projet passent par le respect d’un certain nombre d’étapes.</Al>
               </INTROFP>
               <Tiobs>Bien évaluer les dépenses</Tiobs>
               <OBS>
                  <Al>Il est nécessaire pour l’entreprise d’évaluer le coût global de la VAE : rémunération des salariés, allocation de formation si l’accompagnement est réalisé hors temps de travail, frais éventuels de transport et d’hébergement, valorisation du temps passé par l’encadrement ou le service RH… Elle doit, ensuite, mobiliser les financements nécessaires pour ses salariés (notamment auprès des Opca).</Al>
               </OBS>
               <Ti1>L’entreprise doit cibler son besoin</Ti1>
               <Ti2>Définir les objectifs</Ti2>
               <Al>Première étape pour une entreprise qui souhaite développer une démarche collective de VAE : en définir le ou les objectifs en fonction du ou des projets de l’entreprise. Ces objectifs sont variés :</Al>
               <Alpuce>préparer des reconversions professionnelles (disparition de certains métiers) ;</Alpuce>
               <Alpuce>maintenir l’employabilité dans le cadre de mutations technologiques ou économiques ;</Alpuce>
               <Alpuce>prévenir les risques d’usure professionnelle ;</Alpuce>
               <Alpuce>favoriser la mobilité interne ;</Alpuce>
               <Alpuce>qualifier et motiver le personnel dans le but de le fidéliser ;</Alpuce>
               <Alpuce>professionnaliser un métier pour attirer de nouvelles candidatures ;</Alpuce>
               <Alpuce>anticiper des exigences à venir en termes de qualification.</Alpuce>
               <Ti2>Sélectionner les candidats</Ti2>
               <Al>Selon les objectifs qu’il souhaite atteindre, l’employeur identifie les salariés qui seront potentiellement concernés par la VAE collective ; celle-ci peut aussi bien concerner un groupe de salariés exerçant un même métier que des salariés exerçant un métier différent.</Al>
               <Al>Les salariés doivent être associés au plus tôt à la démarche. Cette information peut se réaliser en deux temps :</Al>
               <Alpuce>une présentation générale du projet (objectifs, bénéfices pour l’entreprise et les salariés et modalités de mise en œuvre) ;</Alpuce>
               <Alpuce>des entretiens individuels pour s’assurer de la compréhension et de la motivation des salariés.</Alpuce>
               <Al>A l’issue de ces entretiens, l’entreprise sélectionne les candidats retenus et peut formaliser leur engagement réciproque dans un contrat : le salarié s’engage à s’investir pleinement en vue d’obtenir la certification et l’entreprise à l’accompagner tout au long de la démarche. Elle peut également s’engager, si le salarié obtient la certification, à faire évoluer son poste et/ou sa rémunération. </Al>
               <Remarque>
                  <Ill>
                     <Image Align="aleft" Angle="0.000" Bloffset="-0.374in" Cropped="0" Float="0" Height="0.315in" Nsoffset="-0.591in" Position="sleft" Width="0.413in" Impang="0.000" Impby="Ref" Impsize="0.395in 0.289in" Sideways="0" Xoffset="0.010in" Yoffset="0.017in" entity="Image1"></Image>
                  </Ill>Entreprise et salarié doivent également s’entendre sur les modalités de mise en œuvre de l’action de VAE : sur ou en dehors du temps de travail, utilisation du congé pour VAE...</Remarque>
               <Ti2>Identifier les compétences des salariés concernés</Ti2>
               <Al>L’employeur recense les compétences acquises par ces salariés, dans l’entreprise ou en dehors. Ce recensement passe par une analyse détaillée des postes occupés et par l’utilisation de tous les outils RH disponibles dans l’entreprise (définitions de poste, entretiens annuels, entretiens professionnels…).</Al>
               <Al>Une fois les compétences identifiées, l’entreprise doit choisir la ou les certifications adaptées.</Al>
               <Remarque>
                  <Ill>
                     <Image Align="aleft" Angle="0.000" Bloffset="-0.374in" Cropped="0" Float="0" Height="0.315in" Nsoffset="-0.591in" Position="sleft" Width="0.413in" Impang="0.000" Impby="Ref" Impsize="0.395in 0.289in" Sideways="0" Xoffset="0.010in" Yoffset="0.017in" entity="Image2"></Image>
                  </Ill>L’implication des managers est cruciale pour la réussite du projet. Ils peuvent suivre et épauler les salariés tout au long de la démarche et identifier d’autres candidats potentiels. L’entreprise peut nommer un chef de projet ou référent chargé de piloter l’action de VAE jusqu’à son terme (calendrier, dates à respecter, relais d’informations).</Remarque>
               <Ti1>L’entreprise doit prévoir les modalités d’accompagnement des candidats</Ti1>
               <Al>Dans le cadre des VAE collectives, l’entreprise est à l’origine de la démarche. Elle a donc intérêt à la réussite du plus grand nombre de salariés sélectionnés. Pour cela, elle doit les soutenir en mobilisant des moyens et mettre en place un accompagnement.</Al>
               <Remarque>
                  <Ill>
                     <Image Align="aleft" Angle="0.000" Bloffset="-0.374in" Cropped="0" Float="0" Height="0.315in" Nsoffset="-0.591in" Position="sleft" Width="0.413in" Impang="0.000" Impby="Ref" Impsize="0.395in 0.289in" Sideways="0" Xoffset="0.010in" Yoffset="0.017in" entity="Image3"></Image>
                  </Ill>A noter également que lorsqu’un salarié s’engage individuellement dans une VAE, rien n’empêche l’entreprise de l’aider dans sa démarche.</Remarque>
               <Al>L’accompagnement est une aide méthodologique au candidat à la VAE pour constituer son dossier, pour préparer son entretien avec un jury et éventuellement la mise en situation professionnelle. L’entreprise va choisir le prestataire qui va assurer cet accompagnement (organisme certificateur ou prestataire extérieur). </Al>
               <Remarque>
                  <Ill>
                     <Image Align="aleft" Angle="0.000" Bloffset="-0.374in" Cropped="0" Float="0" Height="0.315in" Nsoffset="-0.591in" Position="sleft" Width="0.413in" Impang="0.000" Impby="Ref" Impsize="0.395in 0.289in" Sideways="0" Xoffset="0.010in" Yoffset="0.017in" entity="Image4"></Image>
                  </Ill>L’accom-pagnement à la VAE est éligible au compte personnel de formation (CPF). </Remarque>
               <Al>L’appui de l’entreprise est complémentaire à cet accompagnement externe. Son soutien moral et matériel contribue au succès de l’opération. Ce soutien prend différentes formes : mise à disposition d’outils de travail pour préparer la mise en situation professionnelle, aménagement des horaires, formation complémentaire…</Al>
               <Remarque>
                  <Ill>
                     <Image Align="aleft" Angle="0.000" Bloffset="-0.374in" Cropped="0" Float="0" Height="0.315in" Nsoffset="-0.591in" Position="sleft" Width="0.413in" Impang="0.000" Impby="Ref" Impsize="0.395in 0.289in" Sideways="0" Xoffset="0.010in" Yoffset="0.017in" entity="Image5"></Image>
                  </Ill>Lorsque la VAE est portée par l’entreprise et plusieurs candidats, les chances de réussite sont optimisées par la synergie créée au sein du groupe de candidats.</Remarque>
               <Al>Il est conseillé d’organiser des points réguliers entre le salarié et le responsable RH (et éventuellement le référent VAE). </Al>
               <Ti1>L’entreprise doit veiller à assurer un suivi post-VAE</Ti1>
               <Ti2>Mettre en place un entretien individuel de bilan</Ti2>
               <Al>Il est conseillé aux entreprises de mettre en place un entretien de bilan de VAE pour les salariés qui ont obtenu leur certification mais également pour ceux qui ne l’obtiennent pas ou qui n’obtiennent qu’une validation partielle. </Al>
               <Al>En cas de réussite, cet entretien est l’occasion de féliciter le salarié mais éventuellement de discuter de l’évolution de sa rémunération et/ou de son poste. L’entreprise peut lui accorder une prime ou revoir sa rémunération. Mais, cela n’a pas de caractère obligatoire.</Al>
               <Remarque>
                  <Ill>
                     <Image Align="aleft" Angle="0.000" Bloffset="-0.374in" Cropped="0" Float="0" Height="0.315in" Nsoffset="-0.591in" Position="sleft" Width="0.413in" Impang="0.000" Impby="Ref" Impsize="0.395in 0.289in" Sideways="0" Xoffset="0.010in" Yoffset="0.017in" entity="Image6"></Image>
                  </Ill>Si l’entreprise n’entend pas établir un lien entre VAE et rémunération, elle doit avoir été claire avec les salariés, dès le début.</Remarque>
               <Al>La réussite du salarié peut également être l’occasion de revoir son poste et de lui confier plus de responsabilités, justifiant un changement de rémunération.</Al>
               <Al>En cas de validation partielle, l’entreprise discutera lors de cette rencontre des actions à mettre en place notamment les formations complémentaires nécessaires à l’obtention de la totalité de la certification. </Al>
               <Al>Pour les salariés qui n’obtiennent pas leur certification, l’entreprise doit prendre soin de les rassurer et de veiller à disjoindre l’échec d’une remise en cause de la qualité professionnelle.</Al>
               <Ti2>Valoriser la démarche</Ti2>
               <Al>Pour valoriser le succès collectif des salariés, l’entreprise peut, par exemple, rédiger un article dans son journal interne ou organiser une réunion pour fêter l’événement. Objectifs de cette valorisation : susciter de nouvelles candidatures et encourager d’autres salariés à prendre la même voie.</Al>
               <PAPL>
                  <Al>Sur l’accompagnement à la VAE, <Renvoi Type="FP" Inline="Oui">
                        <Fiche Idref="X5F126" Partie="pratique" Numfiche="120" Nbr="SING" fmcssattr="6"></Fiche>
                     </Renvoi>.</Al>
                  <Al>Sur la procédure de VAE, <Renvoi Type="FP">
                        <Fiche Idref="X5F127" Partie="pratique" Numfiche="121" Nbr="SING" fmcssattr="6"></Fiche>
                     </Renvoi>.</Al>
                  <Al>Sur les certifications accessibles par la VAE, <Renvoi Type="FP">
                        <Fiche Idref="X5F128" Partie="pratique" Numfiche="122" Nbr="SING" fmcssattr="6"></Fiche>
                     </Renvoi>.</Al>
                  <Al>Sur le répertoire national des certifications professionnelles (RNCP), <Renvoi Type="FP">
                        <Fiche Idref="X5F129" Partie="pratique" Numfiche="123" Nbr="SING" fmcssattr="6"></Fiche>
                     </Renvoi>.</Al>
               </PAPL>
            </FP>