<?xml version="1.0" encoding="UTF-8"?><Etudered xmlns="http://www.lefebvre-sarrut.eu/ns/el/etudered" xmlns:xf="http://www.lefebvre-sarrut.eu/ns/xmlfirst">
                                          <Pnumti Id="Z2001-2716" xf:id="{historicalId:el_Z2001-2716}" Typemaj="0" Indtap="0">Assimilation à du temps de travail pour certains avantages</Pnumti>
                                          <Al Typemaj="0">La durée du congé est assimilée à une période de travail effectif pour la détermination des avantages légaux et conventionnels liés à l’ancienneté.</Al>
                                          <Al Typemaj="0">Elle ne peut pas être imputée sur la durée du congé annuel.</Al>
                                          <Refcode Type="ART" Code="PXCT2" Typemaj="0">
                                             <Xacode xmlns:html="http://www.w3.org/1999/xhtml" xf:refType="TODO" html:href="" Num="3142-68" Type="L" fmcssattr="0"></Xacode>
                                          </Refcode>
                                       </Etudered>