<?xml version="1.0" encoding="UTF-8"?>
<xf:editorialEntity xmlns:xf="http://www.lefebvre-sarrut.eu/ns/xmlfirst"
                    code="EL_TEE_fichePratique"
                    xf:id="{historicalId:el_X5F002}"
                    ownerGroup="EL_GRP_gb"
                    creationUser="88">
   <xf:metadata><!--CALCULATED METADATA-->
      <meta xmlns="http://www.lefebvre-sarrut.eu/ns/xmlfirst" code="systemTitle">
         <xf:value>
            <div xmlns="http://www.w3.org/1999/xhtml" class="Tifp">
               <span class="texte-Tifp texte">La gestion des 
compétences au 
service de la 
compétitivité</span>
            </div>
         </xf:value>
      </meta>
      <meta xmlns="http://www.lefebvre-sarrut.eu/ns/xmlfirst"
            code="EL_META_titreFiches">
         <xf:value>
            <div xmlns="http://www.w3.org/1999/xhtml" class="Tifp">
               <span class="texte-Tifp texte">La gestion des 
compétences au 
service de la 
compétitivité</span>
            </div>
         </xf:value>
      </meta>
      <meta xmlns="http://www.lefebvre-sarrut.eu/ns/xmlfirst" code="systemAbstract">
         <xf:value>
            <div xmlns="http://www.w3.org/1999/xhtml" class="INTROFP">
               <div class="Al">
                  <span class="texte-Al texte">L’avenir des entreprises, et parfois même leur survie, dépendent de leur capacité à affronter la concurrence : elles doivent être compétitives. Pour cela, il faut identifier les compétences nécessaires, mettre en place une démarche de gestion de ces compétences, l’intégrer à la stratégie de l’entreprise, et organiser les formations adéquates.</span>
               </div>
            </div>
         </xf:value>
      </meta>
      <!--GENERATED METADATA-->
      <meta xmlns="http://www.lefebvre-sarrut.eu/ns/xmlfirst" code="systemTEE">
         <xf:value>el_FICHE_FP</xf:value>
      </meta>
      <meta xmlns="http://www.lefebvre-sarrut.eu/ns/xmlfirst" code="systemStatut">
         <xf:value>PREPA</xf:value>
      </meta>
      <meta xmlns="http://www.lefebvre-sarrut.eu/ns/xmlfirst" code="systemArchive">
         <xf:value>False</xf:value>
      </meta>
      <meta xmlns="http://www.lefebvre-sarrut.eu/ns/xmlfirst" code="systemVersion">
         <xf:value>0</xf:value>
      </meta>
      <meta xmlns="http://www.lefebvre-sarrut.eu/ns/xmlfirst"
            code="systemGroupeProprietaire">
         <xf:value>EL_GRP_gb</xf:value>
      </meta>
      <meta xmlns="http://www.lefebvre-sarrut.eu/ns/xmlfirst"
            code="EL_META_observations">
         <xf:value>
            <div xmlns="http://www.w3.org/1999/xhtml" class="Observations">
               <div class="Tiobs">
                  <span class="texte-Tiobs texte">La formation, principal outil de développement des compétences</span>
               </div>
               <div class="OBS">
                  <div class="Al">
                     <span class="texte-Al texte">Depuis quelques années, les salariés sont de plus en plus nombreux à effectuer un bilan de compétences. Leurs motivations sont diverses. Il peut s’agir de se préparer à évoluer dans son poste de travail, de changer de métier ou de cibler une formation adaptée. Le recours à cette analyse des besoins de compétences conduit inéluctablement aussi à « l’enrichissement » des plans de formation.</span>
                  </div>
                  <span class="texte-OBS texte">
</span>
                  <div class="Al">
                     <span class="texte-Al texte">Le développement des compétences par la formation tout autant que leur prise en compte par la mise en œuvre de mécanismes tels que la validation des compétences sont aujourd’hui les passages obligés de la réussite économique.</span>
                  </div>
               </div>
            </div>
         </xf:value>
      </meta>
      <meta xmlns="http://www.lefebvre-sarrut.eu/ns/xmlfirst" code="EL_META_papl">
         <xf:value>
            <div xmlns="http://www.w3.org/1999/xhtml" class="PAPL">
               <div class="Al">
                  <span class="texte-Al texte">Sur le lien entre formation et gestion prévisionnelle des emplois et des compétences (GPEC), </span>
                  <div class="Renvoi">
                     <div class="Fiche">
                        <span class="texte-Fiche texte">.</span>
                     </div>
                  </div>
               </div>
               <span class="texte-PAPL texte">
</span>
               <div class="Al">
                  <span class="texte-Al texte">Sur le Répertoire national des certifications professionnelles (RNCP), </span>
                  <div class="Renvoi">
                     <div class="Fiche"/>
                  </div>
                  <span class="texte-Al texte">.</span>
               </div>
            </div>
            <div xmlns="http://www.w3.org/1999/xhtml" class="PAPL">
               <div class="Al">
                  <span class="texte-Al texte">Sur le lien entre formation et gestion prévisionnelle des emplois et des compétences (GPEC), </span>
                  <div class="Renvoi">
                     <div class="Fiche">
                        <span class="texte-Fiche texte">.</span>
                     </div>
                  </div>
               </div>
               <span class="texte-PAPL texte">
</span>
               <div class="Al">
                  <span class="texte-Al texte">Sur le Répertoire national des certifications professionnelles (RNCP), </span>
                  <div class="Renvoi">
                     <div class="Fiche"/>
                  </div>
                  <span class="texte-Al texte">.</span>
               </div>
            </div>
         </xf:value>
      </meta>
      <meta xmlns="http://www.lefebvre-sarrut.eu/ns/xmlfirst" code="EL_META_resume">
         <xf:value>
            <div xmlns="http://www.w3.org/1999/xhtml" class="Al">
               <span class="texte-Al texte">L’avenir des entreprises, et parfois même leur survie, dépendent de leur capacité à affronter la concurrence : elles doivent être compétitives. Pour cela, il faut identifier les compétences nécessaires, mettre en place une démarche de gestion de ces compétences, l’intégrer à la stratégie de l’entreprise, et organiser les formations adéquates.</span>
            </div>
         </xf:value>
      </meta>
      <meta xmlns="http://www.lefebvre-sarrut.eu/ns/xmlfirst" code="EL_META_idEL">
         <xf:value>X5F002</xf:value>
      </meta>
      <meta xmlns="http://www.lefebvre-sarrut.eu/ns/xmlfirst"
            code="EL_META_repriseRelationFicheGB">
         <xf:value>GB25</xf:value>
      </meta>
      <meta xmlns="http://www.lefebvre-sarrut.eu/ns/xmlfirst" code="EL_META_mr">
         <xf:value>On</xf:value>
      </meta>
      <meta xmlns="http://www.lefebvre-sarrut.eu/ns/xmlfirst" code="EL_META_titreGB">
         <xf:value>1</xf:value>
         <xf:value>IDFPT01</xf:value>
      </meta>
      <meta xmlns="http://www.lefebvre-sarrut.eu/ns/xmlfirst"
            code="EL_META_positionFiche">
         <xf:value>Corps</xf:value>
      </meta>
      <meta xmlns="http://www.lefebvre-sarrut.eu/ns/xmlfirst" code="EL_META_maj">
         <xf:value>17-06</xf:value>
      </meta>
      <meta xmlns="http://www.lefebvre-sarrut.eu/ns/xmlfirst" code="EL_META_versionEDD">
         <xf:value>GB59_FP_EDD_47</xf:value>
      </meta>
   </xf:metadata>
   <body xmlns="http://www.lefebvre-sarrut.eu/ns/xmlfirst">
      <contentNode>
         <content>
            <FP xmlns="http://www.lefebvre-sarrut.eu/ns/el/fichesGB_FP"
                GB="GB25"
                MR="On"
                Titre="1"
                Theme="IDFPT01"
                Position="Corps"
                Maj="17-06"
                Eddversion="GB59_FP_EDD_47">
               <Tifp>La gestion des 
compétences au 
service de la 
compétitivité</Tifp>
               <INTROFP>
                  <Al>L’avenir des entreprises, et parfois même leur survie, dépendent de leur capacité à affronter la concurrence : elles doivent être compétitives. Pour cela, il faut identifier les compétences nécessaires, mettre en place une démarche de gestion de ces compétences, l’intégrer à la stratégie de l’entreprise, et organiser les formations adéquates.</Al>
               </INTROFP>
               <PAPL>
                  <Al>Sur le lien entre formation et gestion prévisionnelle des emplois et des compétences (GPEC), <Renvoi Type="FP">
                        <Fiche Idref="X5F033"
                               Partie="pratique"
                               Numfiche="39"
                               Nbr="SING"
                               fmcssattr="6">.</Fiche>
                     </Renvoi>
                  </Al>
                  <Al>Sur le Répertoire national des certifications professionnelles (RNCP), <Renvoi Type="FP">
                        <Fiche Idref="X5F129"
                               Partie="pratique"
                               Numfiche="119"
                               Nbr="SING"
                               fmcssattr="6"/>
                     </Renvoi>.</Al>
               </PAPL>
               <PAPL>
                  <Al>Sur le lien entre formation et gestion prévisionnelle des emplois et des compétences (GPEC), <Renvoi Type="FP">
                        <Fiche Idref="X5F033"
                               Partie="pratique"
                               Numfiche="39"
                               Nbr="SING"
                               fmcssattr="6">.</Fiche>
                     </Renvoi>
                  </Al>
                  <Al>Sur le Répertoire national des certifications professionnelles (RNCP), <Renvoi Type="FP">
                        <Fiche Idref="X5F129"
                               Partie="pratique"
                               Numfiche="119"
                               Nbr="SING"
                               fmcssattr="6"/>
                     </Renvoi>.</Al>
               </PAPL>
               <Tiobs>La formation, principal outil de développement des compétences</Tiobs>
               <OBS>
                  <Al>Depuis quelques années, les salariés sont de plus en plus nombreux à effectuer un bilan de compétences. Leurs motivations sont diverses. Il peut s’agir de se préparer à évoluer dans son poste de travail, de changer de métier ou de cibler une formation adaptée. Le recours à cette analyse des besoins de compétences conduit inéluctablement aussi à « l’enrichissement » des plans de formation.</Al>
                  <Al>Le développement des compétences par la formation tout autant que leur prise en compte par la mise en œuvre de mécanismes tels que la validation des compétences sont aujourd’hui les passages obligés de la réussite économique.</Al>
               </OBS>
               <Ti1>Définir les compétences nécessaires</Ti1>
               <Ti2>Quelles compétences ?</Ti2>
               <Al>Pour éviter les approximations sans grand pouvoir opérationnel, il est conseillé de ne s’intéresser qu’aux compétences comprises comme des « savoir-faire utiles en situation de travail ». La compétence d’un salarié se mesure en effet par rapport à un contexte donné, celui dans le-quel elle s’exerce : un ingénieur très créatif affecté à des travaux de recherche-développement, qui aurait mauvais caractère, ne se verra pas reprocher la faiblesse de ses compétences relationnelles de manière aussi vive qu’un chargé de relations clientèle ! Il est donc souhaitable de déterminer les compétences de chacun dans le cadre de son activité professionnelle précise et de ne retenir que celles qui peuvent être investies dans l’emploi.</Al>
               <Ti2>Compétences individuelles ou collectives ?</Ti2>
               <Al>Organiser les compétences au sein d’une entité de travail nécessite de connaître les interactions des membres de cette entité et de valoriser les compétences individuelles au sein de chaque équipe, notamment à l’occasion de la mise en œuvre de nouveaux projets.</Al>
               <Al>L’action du salarié ne peut par ailleurs être tout à fait efficace que si elle s’exerce dans le cadre d’une organisation du travail pertinente. Certaines compétences sont parfois encore privilégiées, alors même que d’autres méthodes de travail plus efficaces les rendraient obsolètes.</Al>
               <Ti2>Ne pas se tromper de diagnostic</Ti2>
               <Al>Quelle que soit la complexité du processus d’ensemble dans lequel intervient un salarié, il est nécessaire d’isoler les facteurs déterminant la qualité de sa performance.</Al>
               <Al>Dans ce cadre, apprécier la performance d’un salarié sans tenir compte d’une organisation déficiente ou de moyens insuffisants risque, à plus ou moins long terme, de faire peser sur le responsable de la formation des problèmes qui ne sont pas de sa compétence.</Al>
               <Ti1>Mettre en place une démarche de gestion des compétences</Ti1>
               <Ti2>Des emplois aux compétences : l’utilité des référentiels</Ti2>
               <Al>Un « emploi », dès lors qu’il concerne plusieurs salariés dans l’entreprise, est considéré com-me un emploi type et, à ce titre, comme une sorte de standard. Son analyse, conduite avec les intéressés et leur responsable direct, permet de dégager en son sein des « activités ».</Al>
               <Remarque>
                  <Ill>
                     <Image Align="aleft"
                            Angle="0.000"
                            Bloffset="-0.374in"
                            Cropped="0"
                            Float="0"
                            Height="0.315in"
                            Nsoffset="-0.591in"
                            Position="sleft"
                            Width="0.413in"
                            Impang="0.000"
                            Impby="Ref"
                            Impsize="0.395in 0.289in"
                            Sideways="0"
                            Xoffset="0.010in"
                            Yoffset="0.017in"
                            entity="Image1"/>
                  </Ill>C’est la même méthode qui est souvent utilisée pour construire les grilles de classification conventionnelles. Ainsi, la convention collective de l’automobile (art. 1.20) définit la qualification professionnelle comme « un ensemble d’activités constitutives d’un emploi type dans un domaine d’activité déterminé ».</Remarque>
               <Al>Chaque activité est à son tour susceptible d’être décrite à partir des « savoir-faire » nécessaires à sa bonne exécution. Au terme d’une telle démarche l’entreprise se sera dotée d’un état précis des compétences qu’elle mobilise : le « référentiel » des compétences.</Al>
               <Al>L’établissement d’un référentiel permet de repérer les compétences qui sont à développer prioritairement en fonction des objectifs de l’entreprise. C’est donc un outil décisif de sa politique de formation. Il aide aussi à prendre conscience de compétences « cachées » soit parce qu’el-les ont été développées pour pallier des problèmes d’organisation ou d’outillage, soit parce qu’elles n’ont pas été sollicitées jusqu’ici par l’entreprise.</Al>
               <Al>Pour le salarié, le référentiel présente l’avantage de rendre objective l’analyse des savoir-faire. Il devient alors possible d’engager un débat dépassionné sur l’actualité de ces savoir-faire sans être forcément dans une discussion de type tout ou rien.</Al>
               <Ti2>Créer ses propres outils d’évaluation</Ti2>
               <Al>Les compétences comme expression de savoir-faire font partie du patrimoine de l’entreprise. Patrimoine trop rarement inventorié et ce, pour diverses raisons :</Al>
               <Alpuce>pour une petite entreprise, la tâche peut sembler démesurée, compte tenu des moyens limités qu’elle affecte à la formation ;</Alpuce>
               <Alpuce>pour les entreprises plus importantes, la diversité des emplois peut conduire à renoncer à la tâche au vu de son ampleur.</Alpuce>
               <Al>Or, les référentiels se prêtent à la construction d’outils informatiques permettant de cerner des profils de compétence. L’entreprise peut même utiliser aujourd’hui des référentiels préformatés, créés pour le Répertoire national des certifications professionnelles (RNCP) (<XSIT Impression="Non">www.cncp.gouv.fr</XSIT>).</Al>
               <Ti1>Mieux gérer les compétences et les efforts de formation</Ti1>
               <Ti2>L’approche « compétences » sert utilement le responsable formation</Ti2>
               <Al>Il est possible de mesurer l’écart éventuel entre les compétences telles que détenues à un mo-ment donné par un salarié et les compétences attendues sur son poste de travail. Le responsable formation aura pour mission de réduire, voire de supprimer autant que possible, cet écart.</Al>
               <Al>La mise en place des repères de compétences que sont les référentiels permet de rendre plus objective la politique de formation d’une entreprise en disposant d’une sorte de carte des compétences ; celle-ci offre en effet un double intérêt :</Al>
               <Alpuce>elle tient compte de l’état réel des connaissances et du savoir-faire de chacun ;</Alpuce>
               <Alpuce>elle permet de révéler des potentiels, des connaissances cachées, développées parfois pour pallier l’insuffisance de l’organisation, ou non exigées jusqu’alors.</Alpuce>
               <Ti2>Une meilleure organisation de la formation permet de mieux gérer les compétences</Ti2>
               <Al>Le succès d’une action de formation réside entre autres dans la motivation de l’apprenant.</Al>
               <Al>C’est pourquoi il est indispensable de privilégier et préserver tout au long de l’action de formation le désir d’appropriation du salarié, qui le conduira à un développement réel de ses savoir-faire. Le positionnement exact du salarié et la recherche des formations les plus opérationnelles à titre individuel sont donc des conditions nécessaires à l’acquisition et au bon développement des compétences.</Al>
               <Ti2>La gestion des compétences et de la formation peut être utilement intégrée à la stratégie de l’entreprise</Ti2>
               <Al>Fondé sur une approche « compétences », le développement d’outils de positionnement et d’évaluation vont ainsi de pair : évaluation des salariés, des formations, des performances, et articulation des critères de performance à la démarche compétence.</Al>
               <Al>Mieux encore, ayant déterminé les objectifs globaux de l’entreprise, il sera possible de valoriser les compétences dans la construction de parcours professionnels : la gestion de la mobilité, des carrières, des seniors, participe de cette réflexion. La mise en place de politiques de rémunérations individuelles ou collectives en est un autre aspect.</Al>
               <Al>Il s’agit bien de capitaliser les compétences, enjeu de la compétitivité.</Al>
            </FP>
         </content>
      </contentNode>
   </body>
</xf:editorialEntity>
