<?xml version="1.0" encoding="UTF-8"?>
<editorialEntity xmlns="http://www.lefebvre-sarrut.eu/ns/xmlfirst"
                 xmlns:xf="http://www.lefebvre-sarrut.eu/ns/xmlfirst"
                 code="EL_TEE_fichePro"
                 xf:id="{historicalId:el_X5FPRO457}"
                 ownerGroup="EL_GRP_gb"
                 creationUser="88">
   <metadata><!--CALCULATED METADATA-->
      <meta code="systemTitle">
         <xf:value>
            <div xmlns="http://www.w3.org/1999/xhtml" class="Titrefiche">
               <span class="texte-Titrefiche texte">Agriculture</span>
            </div>
            <div xmlns="http://www.w3.org/1999/xhtml" class="Soustitrefiche">
               <span class="texte-Soustitrefiche texte">Exploitations agricoles et organismes agricoles</span>
            </div>
         </xf:value>
      </meta>
      <meta code="EL_META_titreFiches">
         <xf:value>
            <div xmlns="http://www.w3.org/1999/xhtml" class="Titrefiche">
               <span class="texte-Titrefiche texte">Agriculture</span>
            </div>
            <div xmlns="http://www.w3.org/1999/xhtml" class="Soustitrefiche">
               <span class="texte-Soustitrefiche texte">Exploitations agricoles et organismes agricoles</span>
            </div>
         </xf:value>
      </meta>
      <meta code="systemAbstract">
         <xf:value>
            <div xmlns="http://www.w3.org/1999/xhtml" class="INTROFPRO">
               <div class="Al">
                  <span class="texte-Al texte">Les entreprises et exploitations agricoles relèvent du Fafsea, à l’exception du secteur de la conchyliculture qui adhère à Agefos-PME.</span>
               </div>
               <span class="texte-INTROFPRO texte">
</span>
               <div class="Al">
                  <span class="texte-Al texte">Elles sont soumises, en matière de formation professionnelle, à des accords nationaux et à des dispositions de leur convention collective nationale (il existe également des conventions régionales ou départementales non traitées ici).</span>
               </div>
               <span class="texte-INTROFPRO texte">
</span>
               <div class="Al">
                  <span class="texte-Al texte">Cette fiche ne traite pas des coopératives agricoles (</span>
                  <div class="Renvoi">
                     <div class="Saisie"/>
                     <div class="Fiche"/>
                  </div>
                  <span class="texte-Al texte">).</span>
               </div>
            </div>
         </xf:value>
      </meta>
      <!--GENERATED METADATA-->
      <meta code="systemTEE">
         <xf:value>fichePro</xf:value>
      </meta>
      <meta code="systemGroupeProprietaire">
         <xf:value>EL_GRP_gb</xf:value>
      </meta>
      <meta code="EL_META_idEL">
         <xf:value>X5FPRO457</xf:value>
      </meta>
      <meta code="EL_META_mr">
         <xf:value>On</xf:value>
      </meta>
      <meta code="EL_META_positionFiche">
         <xf:value>Corps</xf:value>
      </meta>
      <meta code="EL_META_versionEDD">
         <xf:value>GB59_FPRO_EDD_35</xf:value>
      </meta>
   </metadata>
   <body>
      <contentNode>
         <content>
            <FPRO xmlns="http://www.lefebvre-sarrut.eu/ns/el/fichesPRO_FPRO"
                  GB="GB25"
                  MR="On"
                  Position="Corps"
                  Maj="17-06"
                  Eddversion="GB59_FPRO_EDD_35">
               <Titrefiche>Agriculture</Titrefiche>
               <Soustitrefiche>Exploitations agricoles et organismes agricoles</Soustitrefiche>
               <INTROFPRO>
                  <Al Typemaj="0">Les entreprises et exploitations agricoles relèvent du Fafsea, à l’exception du secteur de la conchyliculture qui adhère à Agefos-PME.</Al>
                  <Al Typemaj="0">Elles sont soumises, en matière de formation professionnelle, à des accords nationaux et à des dispositions de leur convention collective nationale (il existe également des conventions régionales ou départementales non traitées ici).</Al>
                  <Al Typemaj="0">Cette fiche ne traite pas des coopératives agricoles (<Renvoi Type="FPRO" Typemaj="0">
                        <Saisie/>
                        <Fiche Idref="X5FPRO467"
                               Partie="Profession"
                               Numfiche="11"
                               Nbr="SING"
                               fmcssattr="4"/>
                     </Renvoi>).</Al>
               </INTROFPRO>
               <INT Typemaj="0">Liste des accords nationaux</INT>
               <Tbl Typemaj="0"
                    ID="X5FPRO457-10"
                    xf:id="{historicalId:el_X5FPRO457-10}"
                    Type="Type11">
                  <Table Security="U">
                     <Tgroup Align="Left" Charoff="50" Security="U">
                        <Tbody Security="U">
                           <Row Security="U">
                              <Entry Security="U">
                                 <Tet1niv Variation="Couleur secondaire" Typemaj="0">Objet</Tet1niv>
                              </Entry>
                              <Entry Security="U">
                                 <Tet1niv Variation="Couleur secondaire" Typemaj="0">Date de l’accord</Tet1niv>
                              </Entry>
                              <Entry Security="U">
                                 <Tet1niv Variation="Couleur secondaire" Typemaj="0">Conventions collectives concernées</Tet1niv>
                              </Entry>
                           </Row>
                           <Row Security="U">
                              <Entry Security="U">
                                 <Tet2niv Variation="Couleur secondaire" Typemaj="0">Contributions des entreprises et collecte</Tet2niv>
                              </Entry>
                           </Row>
                           <Row Security="U">
                              <Entry Security="U">
                                 <Al Typemaj="0">Fafsea</Al>
                              </Entry>
                              <Entry Security="U">
                                 <Al Typemaj="0">
                                    <RefCCN Typemaj="0" Idref="OC577-1723" Type="CCOL" generatecontent="No">
                                       <Libre1/>
                                       <CCN Idref="OC577-1723" Ccnna="NON" Type="CCOL">Accord, 23 nov. 1972</CCN>
                                       <Libre2/>
                                    </RefCCN> mod. en dernier lieu par <RefCCN Typemaj="0" Idref="OC577-3068" Type="CCOL" generatecontent="No">
                                       <Libre1/>
                                       <CCN Idref="OC577-3068" Ccnna="NON" Type="CCOL">avenant n<E>o</E> 24, 17 sept. 2013</CCN>
                                       <Libre2/>
                                    </RefCCN> et avenant n<E>o</E> 25, 3 févr. 2016 ;<RefCCN Typemaj="0" Idref="OC577-1959" Type="CCOL" generatecontent="No">
                                       <Libre1/>
                                       <CCN Idref="OC577-1959" Type="CCOL"> Accord, 11 mars 2008</CCN>
                                       <Libre2/>
                                    </RefCCN>
                                 </Al>
                              </Entry>
                              <Entry Security="U">
                                 <Al Typemaj="0">Accouvage ; Aquaculture ; Centres d’entraînement : chevaux de courses au galop ; Centres d’entraînement : chevaux de courses au trot ; Centres équestres ; Champagne ; Crédit agricole ; Familles rurales  ; Fleuristes, vente et service des animaux familiers ; Gardes-chasse et gardes-pêche ; Jardineries et graineteries ; Lin : rouissage-teillage ; Maisons familiales rurales ; Paysage : entreprises ; Pêche de loisir et de protection du milieu aquatique : structures associatives ; Vins, cidres, jus de fruits ; Zoos</Al>
                              </Entry>
                           </Row>
                           <Row Security="U">
                              <Entry Security="U">
                                 <Al Typemaj="0">Agefos-PME</Al>
                              </Entry>
                              <Entry Security="U">
                                 <Al Typemaj="0">
                                    <RefCCN Typemaj="0" Idref="OC032-298" Type="CCOL" generatecontent="No">
                                       <Libre1/>
                                       <CCN Idref="OC032-298" Type="CCOL">Accord, 6 juill. 2011</CCN>
                                       <Libre2/>
                                    </RefCCN> mod. par avenant, 6 janv. 2015</Al>
                              </Entry>
                              <Entry Security="U">
                                 <Al Typemaj="0">Conchyliculture</Al>
                              </Entry>
                           </Row>
                           <Row Security="U">
                              <Entry Security="U">
                                 <Al Typemaj="0">Financement du congé individuel de formation</Al>
                              </Entry>
                              <Entry Security="U">
                                 <Al Typemaj="0">
                                    <RefCCN Typemaj="0" Idref="OC577-1903" Type="CCOL" generatecontent="No">
                                       <Libre1/>
                                       <CCN Idref="OC577-1903" Type="CCOL">Accord, 24 mai 1983 </CCN>
                                       <Libre2>mod. par avenant n<E>o</E> 6</Libre2>
                                    </RefCCN>, <RefCCN Typemaj="0" Idref="OC577-1561" Type="CCOL" generatecontent="No">
                                       <Libre1/>
                                       <CCN Idref="OC577-1561" Type="CCOL">9 févr. 2005 </CCN>
                                       <Libre2>et par accord, 11 mars 2008</Libre2>
                                    </RefCCN>
                                 </Al>
                              </Entry>
                              <Entry Security="U">
                                 <Al Typemaj="0">Accouvage ; Aquaculture ; Centres d’entraînement : chevaux de courses au galop ; Centres d’entraînement : chevaux de courses au trot ; Centres équestres ; Paysage : entreprises</Al>
                              </Entry>
                           </Row>
                           <Row Security="U">
                              <Entry Security="U">
                                 <Al Typemaj="0">Mutualisation des fonds de la formation professionnelle dans la production agricole</Al>
                              </Entry>
                              <Entry Security="U">
                                 <Al Typemaj="0">
                                    <RefCCN Typemaj="0" Idref="OC577-1453" Type="CCOL" generatecontent="No">
                                       <Libre1/>
                                       <CCN Idref="OC577-1453" Type="CCOL">Accord, 2 juin 2004 </CCN>
                                       <Libre2>mod. par avenants, 29 nov. 2005, 28 nov. 2007 et 24 janv. 2008</Libre2>
                                    </RefCCN>
                                 </Al>
                              </Entry>
                              <Entry Security="U">
                                 <Al Typemaj="0">Accouvage ; Aquaculture ; Lin : rouissage-teillage ; Paysage : entreprises</Al>
                              </Entry>
                           </Row>
                           <Row Security="U">
                              <Entry Security="U">
                                 <Tet2niv Variation="Couleur secondaire" Typemaj="0">Politique de la formation</Tet2niv>
                              </Entry>
                           </Row>
                           <Row Security="U">
                              <Entry Security="U">
                                 <Al Typemaj="0">Lignes directrices de la politique de formation professionnelle</Al>
                              </Entry>
                              <Entry Security="U">
                                 <Al Typemaj="0">
                                    <RefCCN Typemaj="0" Idref="OC577-1291" Type="CCOL" generatecontent="No">
                                       <Libre1/>
                                       <CCN Idref="OC577-1291" Type="CCOL">Accord, 1<E>er</E> juill. 2003</CCN>
                                       <Libre2/>
                                    </RefCCN>
                                 </Al>
                              </Entry>
                              <Entry Security="U">
                                 <Al Typemaj="0">Accouvage ; Aquaculture ; Paysage : entreprises</Al>
                              </Entry>
                           </Row>
                           <Row Security="U">
                              <Entry Security="U">
                                 <Tet2niv Variation="Couleur secondaire" Typemaj="0">Développement de la formation</Tet2niv>
                              </Entry>
                           </Row>
                           <Row Security="U">
                              <Entry Security="U">
                                 <Al Typemaj="0">Formation des actifs familiaux et des salariés des exploitations et entreprises agricoles (et de la coopération agricole)</Al>
                              </Entry>
                              <Entry Security="U">
                                 <Al Typemaj="0">
                                    <RefCCN Typemaj="0" Idref="OC577-175" Type="CCOL" generatecontent="No">
                                       <Libre1/>
                                       <CCN Idref="OC577-175" Type="CCOL">Accord, 26 mars 1993</CCN>
                                       <Libre2/>
                                    </RefCCN>
                                 </Al>
                              </Entry>
                              <Entry Security="U">
                                 <Al Typemaj="0">Accouvage ; Aquaculture ; Centres d’entraînement : chevaux de courses au galop ; Centres d’entraînement : chevaux de courses au trot ; Centres équestres ; Gardes-chasse et gardes-pêche ; Lin : rouissage-teillage ; Paysage : entreprises</Al>
                              </Entry>
                           </Row>
                           <Row Security="U">
                              <Entry Security="U">
                                 <Al Typemaj="0">Formation des conducteurs routiers du secteur agricole</Al>
                              </Entry>
                              <Entry Security="U">
                                 <Al Typemaj="0">
                                    <RefCCN Typemaj="0" Idref="OC577-746" Type="CCOL" generatecontent="No">
                                       <Libre1/>
                                       <CCN Idref="OC577-746" Type="CCOL">Accord, 21 juill. 1999</CCN>
                                       <Libre2/>
                                    </RefCCN>
                                 </Al>
                              </Entry>
                              <Entry Security="U">
                                 <Al Typemaj="0">Accouvage ; Aquaculture ; Centres d’entraînement : chevaux de courses au galop ; Centres d’entraînement : chevaux de courses au trot ; Centres équestres ; Lin : rouissage-teillage</Al>
                              </Entry>
                           </Row>
                           <Row Security="U">
                              <Entry Security="U">
                                 <Al Typemaj="0">Congés individuels de formation dans les exploitations et entreprises agricoles</Al>
                              </Entry>
                              <Entry Security="U">
                                 <Al Typemaj="0">
                                    <RefCCN Typemaj="0" Idref="OC577-1146" Type="CCOL" generatecontent="No">
                                       <Libre1/>
                                       <CCN Idref="OC577-1146" Type="CCOL">Accord, 18 juill. 2002</CCN>
                                       <Libre2/>
                                    </RefCCN>
                                 </Al>
                              </Entry>
                              <Entry Security="U">
                                 <Al Typemaj="0">Accouvage ; Aquaculture ; Lin : rouissage-teillage ; Paysage : entreprises</Al>
                              </Entry>
                           </Row>
                           <Row Security="U">
                              <Entry Security="U">
                                 <Tet2niv Variation="Couleur secondaire" Typemaj="0">CQP</Tet2niv>
                              </Entry>
                           </Row>
                           <Row Security="U">
                              <Entry Security="U">
                                 <Al Typemaj="0">Modalités de création de CQP</Al>
                              </Entry>
                              <Entry Security="U">
                                 <Al Typemaj="0">
                                    <RefCCN Typemaj="0" Idref="OC577-1123" Type="CCOL" generatecontent="No">
                                       <Libre1/>
                                       <CCN Idref="OC577-1123" Type="CCOL">Accord, 22 mai 2002</CCN>
                                       <Libre2/>
                                    </RefCCN>
                                 </Al>
                              </Entry>
                              <Entry Security="U">
                                 <Al Typemaj="0">Accouvage ; Aquaculture ; Lin : rouissage-teillage ; Paysage : entreprises</Al>
                              </Entry>
                           </Row>
                           <Row Security="U">
                              <Entry Security="U">
                                 <Tet2niv Variation="Couleur secondaire" Typemaj="0">CPNE et CPRE</Tet2niv>
                              </Entry>
                           </Row>
                           <Row Security="U">
                              <Entry Security="U">
                                 <Al Typemaj="0">Commissions paritaires nationales et régionales de l’emploi</Al>
                              </Entry>
                              <Entry Security="U">
                                 <Al Typemaj="0">
                                    <RefCCN Typemaj="0" Idref="OC577-1868" Type="CCOL" generatecontent="No">
                                       <Libre1/>
                                       <CCN Idref="OC577-1868" Type="CCOL">Accord, 2 oct. 1984 </CCN>
                                       <Libre2>mod.</Libre2>
                                    </RefCCN>
                                 </Al>
                              </Entry>
                              <Entry Security="U">
                                 <Al Typemaj="0">Accouvage ; Aquaculture ; Centres équestres ; Paysage : entreprises</Al>
                              </Entry>
                           </Row>
                           <Row Security="U">
                              <Entry Security="U">
                                 <Tet2niv Variation="Couleur secondaire" Typemaj="0">Formation professionnelle tout au long de la vie</Tet2niv>
                              </Entry>
                           </Row>
                           <Row Security="U">
                              <Entry Security="U">
                                 <Al Typemaj="0">CPF, professionnalisation, tutorat, VAE, plan de formation</Al>
                              </Entry>
                              <Entry Security="U">
                                 <Al Typemaj="0">
                                    <RefCCN Typemaj="0" Idref="OC577-1410" Type="CCOL" generatecontent="No">
                                       <Libre1/>
                                       <CCN Idref="OC577-1410" Ccnna="NON" Type="CCOL">Accord, 2 juin 2004</CCN>
                                       <Libre2/>
                                    </RefCCN> mod. en dernier lieu par avenant n<E>o</E> 7, 9 janv. 2015</Al>
                              </Entry>
                              <Entry Security="U">
                                 <Al Typemaj="0">Accouvage ; Aquaculture ; Lin : rouissage-teillage ; Paysage : entreprises</Al>
                              </Entry>
                           </Row>
                           <Row Security="U">
                              <Entry Security="U">
                                 <Tet2niv Typemaj="0" Variation="Couleur secondaire">Dispositions diverses sur la formation professionnelle</Tet2niv>
                              </Entry>
                           </Row>
                           <Row Security="U">
                              <Entry Security="U">
                                 <Al Typemaj="0">Emploi des seniors</Al>
                              </Entry>
                              <Entry Security="U">
                                 <Al Typemaj="0">
                                    <RefCCN Typemaj="0" Idref="OC577-1924" Type="CCOL" generatecontent="No">
                                       <Libre1/>
                                       <CCN Idref="OC577-1924" Type="CCOL">Accord, 11 mars 2008 </CCN>
                                       <Libre2>mod. par avenant n<E>o</E> 1, 29 oct. 2009 et par avenant n<E>o</E> 2, 3 nov. 2009</Libre2>
                                    </RefCCN>
                                 </Al>
                              </Entry>
                              <Entry Security="U">
                                 <Al Typemaj="0">Accouvage ; Aquaculture ; Lin : rouissage-teillage ; Paysage : entreprises</Al>
                              </Entry>
                           </Row>
                           <Row Security="U">
                              <Entry Security="U">
                                 <Al Typemaj="0">Égalité professionnelle et salariale</Al>
                              </Entry>
                              <Entry Security="U">
                                 <Al Typemaj="0">
                                    <RefCCN Typemaj="0" Idref="OC577-2252" Type="CCOL" generatecontent="No">
                                       <Libre1/>
                                       <CCN Idref="OC577-2252" Type="CCOL">Accord, 29 oct. 2009</CCN>
                                       <Libre2/>
                                    </RefCCN> complété par <RefCCN Typemaj="0" Idref="OC577-3420" Type="CCOL" generatecontent="No">
                                       <Libre1/>
                                       <CCN Idref="OC577-3420" Ccnna="NON" Type="CCOL">avenant n<E>o</E> 1, 15 avr. 2014</CCN>
                                       <Libre2/>
                                    </RefCCN>
                                 </Al>
                              </Entry>
                              <Entry Security="U">
                                 <Al Typemaj="0">Accouvage ; Aquaculture ; Lin : rouissage-teillage ; Paysage : entreprises</Al>
                              </Entry>
                           </Row>
                           <Row Security="U">
                              <Entry Security="U">
                                 <Al Typemaj="0">Contrat de génération</Al>
                              </Entry>
                              <Entry Security="U">
                                 <Al Typemaj="0">
                                    <RefCCN Typemaj="0" Idref="OC577-3115" Type="CCOL" generatecontent="No">
                                       <Libre1/>
                                       <CCN Idref="OC577-3115" Ccnna="NON" Type="CCOL">Accord, 14 nov. 2013</CCN>
                                       <Libre2/>
                                    </RefCCN>
                                 </Al>
                              </Entry>
                              <Entry Security="U">
                                 <Al Typemaj="0">Accouvage ; Aquaculture ; Lin : rouissage-teillage ; Paysage : entreprises</Al>
                              </Entry>
                           </Row>
                           <Row Security="U">
                              <Entry Security="U">
                                 <Al Typemaj="0">Pacte de responsabilité</Al>
                              </Entry>
                              <Entry Security="U">
                                 <Al Typemaj="0">
                                    <RefCCN Typemaj="0" Idref="OC577-3477" Type="CCOL" generatecontent="No">
                                       <Libre1/>
                                       <CCN Idref="OC577-3477" Ccnna="NON" Type="CCOL">Accord, 17 mars 2015</CCN>
                                       <Libre2/>
                                    </RefCCN>
                                 </Al>
                              </Entry>
                              <Entry Security="U">
                                 <Al Typemaj="0">Accouvage ; Aquaculture ; Lin : rouissage-teillage : Paysage : entreprises</Al>
                              </Entry>
                           </Row>
                        </Tbody>
                     </Tgroup>
                  </Table>
               </Tbl>
               <INT Typemaj="0">Dispositions applicables par convention collective</INT>
               <Al Typemaj="0">Des dispositions et des accords propres à chacune de ces conventions collectives complètent le dispositif conventionnel en matière de formation professionnelle.</Al>
               <Tbl Typemaj="0"
                    ID="X5FPRO457-11"
                    xf:id="{historicalId:el_X5FPRO457-11}"
                    Type="Type5">
                  <Table Security="U">
                     <Tgroup Align="Left" Charoff="50" Security="U">
                        <Thead Security="U">
                           <Row Security="U">
                              <Entry Security="U">
                                 <Tet1niv Typemaj="0" Variation="0">Conventions collectives nationales</Tet1niv>
                              </Entry>
                              <Entry Security="U">
                                 <Tet1niv Typemaj="0" Variation="0">Dispositions applicables</Tet1niv>
                              </Entry>
                           </Row>
                        </Thead>
                        <Tbody Security="U">
                           <Row Security="U">
                              <Entry Security="U">
                                 <Tetverticale Variation="Couleursecondaire" Typemaj="0">Accouvage</Tetverticale>
                              </Entry>
                              <Entry Security="U">
                                 <Al Typemaj="0">
                                    <RefCCN Typemaj="0" Idref="CC545-462" Type="CCOL" generatecontent="No">
                                       <Libre1/>
                                       <CCN Idref="CC545-462" Type="CCOL">CCN, art. 44</CCN>
                                       <Libre2/>
                                    </RefCCN> ;<RefCCN Typemaj="0" Idref="CC545-465" Type="CCOL" generatecontent="No">
                                       <Libre1/>
                                       <CCN Idref="CC545-465" Type="CCOL"> Annexe I</CCN>
                                       <Libre2/>
                                    </RefCCN> ; <RefCCN Typemaj="0" Idref="CC545-342" Type="CCOL" generatecontent="No">
                                       <Libre1>Accords </Libre1>
                                       <CCN Idref="CC545-342" Type="CCOL">RTT</CCN>
                                       <Libre2/>
                                    </RefCCN>, <RefCCN Typemaj="0" Idref="CC545-688" Type="CCOL" generatecontent="No">
                                       <Libre1/>
                                       <CCN Idref="CC545-688" Type="CCOL">CQP</CCN>
                                       <Libre2/>
                                    </RefCCN>
                                 </Al>
                              </Entry>
                           </Row>
                           <Row Security="U">
                              <Entry Security="U">
                                 <Tetverticale Variation="Couleursecondaire" Typemaj="0">Aquaculture</Tetverticale>
                              </Entry>
                              <Entry Security="U">
                                 <Al Typemaj="0">
                                    <RefCCN Typemaj="0" Idref="CC567-279" Type="CCOL" generatecontent="No">
                                       <Libre1/>
                                       <CCN Idref="CC567-279" Type="CCOL">CCN, art. 32</CCN>
                                       <Libre2/>
                                    </RefCCN>, <RefCCN Typemaj="0" Idref="CC567-320" Type="CCOL" generatecontent="No">
                                       <Libre1/>
                                       <CCN Idref="CC567-320" Type="CCOL">48</CCN>
                                       <Libre2/>
                                    </RefCCN>, <RefCCN Typemaj="0" Idref="CC567-333" Type="CCOL" generatecontent="No">
                                       <Libre1/>
                                       <CCN Idref="CC567-333" Type="CCOL">chap. XI</CCN>
                                       <Libre2/>
                                    </RefCCN>, <RefCCN Typemaj="0" Idref="CC567-339" Type="CCOL" generatecontent="No">
                                       <Libre1/>
                                       <CCN Idref="CC567-339" Type="CCOL">art. 62</CCN>
                                       <Libre2/>
                                    </RefCCN>
                                 </Al>
                              </Entry>
                           </Row>
                           <Row Security="U">
                              <Entry Security="U">
                                 <Tetverticale Variation="Couleursecondaire" Typemaj="0">Centres d’entraînement : chevaux de courses au galop</Tetverticale>
                              </Entry>
                              <Entry Security="U">
                                 <Al Typemaj="0">
                                    <RefCCN Typemaj="0" Idref="CC547" Type="CCOL" generatecontent="No">
                                       <Libre1/>
                                       <CCN Idref="CC547" Type="CCOL">CCN, art. 13</CCN>
                                       <Libre2/>
                                    </RefCCN>
                                 </Al>
                              </Entry>
                           </Row>
                           <Row Security="U">
                              <Entry Security="U">
                                 <Tetverticale Variation="Couleursecondaire" Typemaj="0">Centres d’entraînement : chevaux de courses au trot</Tetverticale>
                              </Entry>
                              <Entry Security="U">
                                 <Al Typemaj="0">
                                    <RefCCN Typemaj="0" Idref="CC548" Type="CCOL" generatecontent="No">
                                       <Libre1/>
                                       <CCN Idref="CC548" Type="CCOL">CCN, chap. XII</CCN>
                                       <Libre2/>
                                    </RefCCN>
                                 </Al>
                              </Entry>
                           </Row>
                           <Row Security="U">
                              <Entry Security="U">
                                 <Tetverticale Variation="Couleursecondaire" Typemaj="0">Centres équestres</Tetverticale>
                              </Entry>
                              <Entry Security="U">
                                 <Al Typemaj="0">
                                    <RefCCN Typemaj="0" Idref="CC549-388" Type="CCOL" generatecontent="No">
                                       <Libre1/>
                                       <CCN Idref="CC549-388" Type="CCOL">CCN, chap. XI</CCN>
                                       <Libre2/>
                                    </RefCCN>, <RefCCN Typemaj="0" Idref="CC549-448" Type="CCOL" generatecontent="No">
                                       <Libre1/>
                                       <CCN Idref="CC549-448" Type="CCOL">art. 58</CCN>
                                       <Libre2/>
                                    </RefCCN>, <RefCCN Typemaj="0" Idref="CC549-449" Type="CCOL" generatecontent="No">
                                       <Libre1/>
                                       <CCN Idref="CC549-449" Type="CCOL">59</CCN>
                                       <Libre2/>
                                    </RefCCN> ; <RefCCN Typemaj="0" Idref="CC549-489" Type="CCOL" generatecontent="No">
                                       <Libre1/>
                                       <CCN Idref="CC549-489" Type="CCOL">Accords CPNE</CCN>
                                       <Libre2/>
                                    </RefCCN> ; <RefCCN Typemaj="0" Idref="CC549-723" Type="CCOL" generatecontent="No">
                                       <Libre1>Accord Mutualisation des fonds, </Libre1>
                                       <CCN Idref="CC549-723" Type="CCOL">19 oct. 2004</CCN>
                                       <Libre2/>
                                    </RefCCN> ; <RefCCN Typemaj="0" Idref="CC549-775" Type="CCOL" generatecontent="No">
                                       <Libre1>Accord Formation, </Libre1>
                                       <CCN Idref="CC549-775" Ccnna="NON" Type="CCOL">21 juin 2006</CCN>
                                       <Libre2/>
                                    </RefCCN>
                                 </Al>
                              </Entry>
                           </Row>
                           <Row Security="U">
                              <Entry Security="U">
                                 <Tetverticale Variation="Couleursecondaire" Typemaj="0">Champagne <AppelNT Typemaj="0"
                                             Variation="Couleursecondaire"
                                             Num="(1)"
                                             IDREF="X5FPRO457-11NT1"/> 
                                 </Tetverticale>
                              </Entry>
                              <Entry Security="U">
                                 <Al Typemaj="0">
                                    <RefCCN Typemaj="0" Idref="CC103-918" Type="CCOL" generatecontent="No">
                                       <Libre1/>
                                       <CCN Idref="CC103-918" Ccnna="NON" Type="CCOL">CCN, art. C.17</CCN>
                                       <Libre2/>
                                    </RefCCN>
                                 </Al>
                              </Entry>
                           </Row>
                           <Row Security="U">
                              <Entry Security="U">
                                 <Tetverticale Variation="Couleursecondaire" Typemaj="0">Conchyliculture <AppelNT Typemaj="0"
                                             Variation="Couleursecondaire"
                                             Num="(2)"
                                             IDREF="X5FPRO457-11NT2"/>
                                 </Tetverticale>
                              </Entry>
                              <Entry Security="U">
                                 <Al Typemaj="0">
                                    <RefCCN Typemaj="0" Idref="CC618-29" Type="CCOL" generatecontent="No">
                                       <Libre1>CCN, </Libre1>
                                       <CCN Idref="CC618-29" Type="CCOL">art. 17,</CCN>
                                       <Libre2/>
                                    </RefCCN> 
                                    <RefCCN Typemaj="0" Idref="CC618-73" Type="CCOL" generatecontent="No">
                                       <Libre1/>
                                       <CCN Idref="CC618-73" Type="CCOL">chap. IX</CCN>
                                       <Libre2/>
                                    </RefCCN> ; <RefCCN Typemaj="0" Type="CCOL" generatecontent="No">
                                       <Libre1>Accord Formation et CPF, </Libre1>
                                       <CCN Ccnna="OUI" Type="CCOL">3 févr. 2016</CCN>
                                       <Libre2/>
                                    </RefCCN>
                                 </Al>
                              </Entry>
                           </Row>
                           <Row Security="U">
                              <Entry Security="U">
                                 <Tetverticale Variation="Couleursecondaire" Typemaj="0">Crédit agricole</Tetverticale>
                              </Entry>
                              <Entry Security="U">
                                 <Al Typemaj="0">
                                    <RefCCN Typemaj="0" Idref="CC552-56" Type="CCOL" generatecontent="No">
                                       <Libre1>CCN, </Libre1>
                                       <CCN Idref="CC552-56" Type="CCOL">art. 20</CCN>
                                       <Libre2/>
                                    </RefCCN>, <RefCCN Typemaj="0" Idref="CC552-95" Type="CCOL" generatecontent="No">
                                       <Libre1/>
                                       <CCN Idref="CC552-95" Type="CCOL">32</CCN>
                                       <Libre2/>
                                    </RefCCN>, <RefCCN Typemaj="0" Idref="CC552-111" Type="CCOL" generatecontent="No">
                                       <Libre1/>
                                       <CCN Idref="CC552-111" Type="CCOL">37</CCN>
                                       <Libre2/>
                                    </RefCCN> ; <RefCCN Typemaj="0" Idref="CC552-347" Type="CCOL" generatecontent="No">
                                       <Libre1>Accord Formation en alternance et apprentissage, </Libre1>
                                       <CCN Idref="CC552-347" Type="CCOL">29 sept. 1993</CCN>
                                       <Libre2/>
                                    </RefCCN> et <RefCCN Typemaj="0" Idref="CC552-1527" Type="CCOL" generatecontent="No">
                                       <Libre1>avenant, </Libre1>
                                       <CCN Idref="CC552-1527" Ccnna="NON" Type="CCOL">27 nov. 2013</CCN>
                                       <Libre2/>
                                    </RefCCN> ; <RefCCN Typemaj="0" Idref="CC552-400" Type="CCOL" generatecontent="No">
                                       <Libre1>Accords Tutorat, </Libre1>
                                       <CCN Idref="CC552-400" Type="CCOL">4 févr. 2004</CCN>
                                       <Libre2> et 19 déc. 2008</Libre2>
                                    </RefCCN> ; <RefCCN Typemaj="0" Idref="CC552-1402" Type="CCOL" generatecontent="No">
                                       <Libre1>Accord Gestion des ressources humaines, </Libre1>
                                       <CCN Idref="CC552-1402" Type="CCOL">30 mai 2012</CCN>
                                       <Libre2/>
                                    </RefCCN> ; <RefCCN Typemaj="0" Idref="CC552-1618" Type="CCOL" generatecontent="No">
                                       <Libre1>Accord Désignation de l’Opca, </Libre1>
                                       <CCN Idref="CC552-1618" Ccnna="NON" Type="CCOL">7 nov. 2013</CCN>
                                       <Libre2/>
                                    </RefCCN> ; <RefCCN Typemaj="0" Idref="CC552-1671" Type="CCOL" generatecontent="No">
                                       <Libre1>Accord Formation et CPF, </Libre1>
                                       <CCN Idref="CC552-1671" Ccnna="NON" Type="CCOL">6 mai 2015</CCN>
                                       <Libre2/>
                                    </RefCCN> 
                                    <AppelNT Typemaj="0" Num="(5)" IDREF="X5FPRO457-11NT5"/> ; <RefCCN Typemaj="0" Type="CCOL" generatecontent="No">
                                       <Libre1>Accord Apprentis, </Libre1>
                                       <CCN Ccnna="OUI" Type="CCOL">19 mai 2015</CCN>
                                       <Libre2/>
                                    </RefCCN> 
                                    <AppelNT Typemaj="0" Num="(6)" IDREF="X5FPRO457-11NT6"/> ; <RefCCN Typemaj="0" Idref="CC552-1746" Type="CCOL" generatecontent="No">
                                       <Libre1>Accord Égalité professionnelle, </Libre1>
                                       <CCN Idref="CC552-1746" Ccnna="NON" Type="CCOL">2 juin 2015</CCN>
                                       <Libre2/>
                                    </RefCCN> 
                                    <AppelNT Typemaj="0" Num="(7)" IDREF="X5FPRO457-11NT7"/>
                                 </Al>
                              </Entry>
                           </Row>
                           <Row Security="U">
                              <Entry Security="U">
                                 <Tetverticale Variation="Couleursecondaire" Typemaj="0">Familles rurales</Tetverticale>
                              </Entry>
                              <Entry Security="U">
                                 <Al Typemaj="0">
                                    <RefCCN Typemaj="0" Idref="CC574-389" Type="CCOL" generatecontent="No">
                                       <Libre1>CCN, </Libre1>
                                       <CCN Idref="CC574-389" Type="CCOL">art. 33</CCN>
                                       <Libre2/>
                                    </RefCCN> ;<RefCCN Typemaj="0" Idref="CC574-763" Type="CCOL" generatecontent="No">
                                       <Libre1> Accord Formation, </Libre1>
                                       <CCN Idref="CC574-763" Ccnna="NON" Type="CCOL">4 mai 2006</CCN>
                                       <Libre2/>
                                    </RefCCN>
                                 </Al>
                              </Entry>
                           </Row>
                           <Row Security="U">
                              <Entry Security="U">
                                 <Tetverticale Variation="Couleursecondaire" Typemaj="0">Fleuristes, vente et service des animaux familiers</Tetverticale>
                              </Entry>
                              <Entry Security="U">
                                 <Al Typemaj="0">
                                    <RefCCN Typemaj="0" Idref="CC203-232" Type="CCOL" generatecontent="No">
                                       <Libre1>CCN,</Libre1>
                                       <CCN Idref="CC203-232" Type="CCOL"> art. 4-4</CCN>
                                       <Libre2/>
                                    </RefCCN>, <RefCCN Typemaj="0" Idref="CC203-236" Type="CCOL" generatecontent="No">
                                       <Libre1/>
                                       <CCN Idref="CC203-236" Type="CCOL">5-2</CCN>
                                       <Libre2/>
                                    </RefCCN>, <RefCCN Typemaj="0" Idref="CC203-238" Type="CCOL" generatecontent="No">
                                       <Libre1/>
                                       <CCN Idref="CC203-238" Type="CCOL">5-4</CCN>
                                       <Libre2/>
                                    </RefCCN> ; <RefCCN Typemaj="0" Idref="CC203-604" Type="CCOL" generatecontent="No">
                                       <Libre1>Accords ARTT, </Libre1>
                                       <CCN Idref="CC203-604" Type="CCOL">Temps partiel</CCN>
                                       <Libre2/>
                                    </RefCCN> ;<RefCCN Typemaj="0" Idref="CC203-445" Type="CCOL" generatecontent="No">
                                       <Libre1> Accords CPNEFP, </Libre1>
                                       <CCN Idref="CC203-445" Type="CCOL">25 sept. 1997 ;</CCN>
                                       <Libre2/>
                                    </RefCCN> 
                                    <RefCCN Typemaj="0" Idref="CC203-645" Type="CCOL" generatecontent="No">
                                       <Libre1>Accords CQP, </Libre1>
                                       <CCN Idref="CC203-645" Type="CCOL">29 nov. 2001</CCN>
                                       <Libre2/>
                                    </RefCCN> ; <RefCCN Typemaj="0" Idref="CC203-730" Type="CCOL" generatecontent="No">
                                       <Libre1>Avenant n<E>o</E> 8 Apprentissage, </Libre1>
                                       <CCN Idref="CC203-730" Type="CCOL">27 janv. 2005</CCN>
                                       <Libre2/>
                                    </RefCCN> ; <RefCCN Typemaj="0" Idref="CC203-789" Type="CCOL" generatecontent="No">
                                       <Libre1>Accord Formation, </Libre1>
                                       <CCN Idref="CC203-789" Ccnna="NON" Type="CCOL">5 juill. 2005</CCN>
                                       <Libre2/>
                                    </RefCCN> ; <RefCCN Typemaj="0" Idref="CC203-1126" Type="CCOL" generatecontent="No">
                                       <Libre1>Accord Égalité professionnelle, </Libre1>
                                       <CCN Idref="CC203-1126" Type="CCOL">9 déc. 2009</CCN>
                                       <Libre2/>
                                    </RefCCN> ; <RefCCN Typemaj="0" Idref="CC203-1175" Type="CCOL" generatecontent="No">
                                       <Libre1>Avenant n<E>o</E> 2 Observatoire prospectif des métiers et qualifications, </Libre1>
                                       <CCN Idref="CC203-1175" Type="CCOL">28 sept. 2010</CCN>
                                       <Libre2/>
                                    </RefCCN> ;<RefCCN Typemaj="0" Idref="CC203-1202" Type="CCOL" generatecontent="No">
                                       <Libre1> Accord CQP Vendeur en animalerie, </Libre1>
                                       <CCN Idref="CC203-1202" Type="CCOL">15 déc. 2010 </CCN>
                                       <Libre2/>
                                    </RefCCN>mod. par avenant n<E>o</E> 1, 15 mai 2013 ; <RefCCN Typemaj="0" Idref="CC203-1269" Type="CCOL" generatecontent="No">
                                       <Libre1>Accord Promotion de la diversité et égalité des chances, </Libre1>
                                       <CCN Idref="CC203-1269" Type="CCOL">8 juill. 2011</CCN>
                                       <Libre2/>
                                    </RefCCN> ; <RefCCN Typemaj="0" Idref="CC203-1311" Type="CCOL" generatecontent="No">
                                       <Libre1>Accord Adhésion au Fafsea et contributions, </Libre1>
                                       <CCN Idref="CC203-1311" Type="CCOL">16 déc. 2011</CCN>
                                       <Libre2/>
                                    </RefCCN> ; <RefCCN Typemaj="0" Idref="CC203-1562" Type="CCOL" generatecontent="No">
                                       <Libre1>Accord Emploi des personnes handicapées, </Libre1>
                                       <CCN Idref="CC203-1562" Ccnna="NON" Type="CCOL">26 mars 2014</CCN>
                                       <Libre2/>
                                    </RefCCN> ; <RefCCN Typemaj="0" Idref="CC203-1641" Type="CCOL" generatecontent="No">
                                       <Libre1>Accord GPEC, </Libre1>
                                       <CCN Idref="CC203-1641" Ccnna="NON" Type="CCOL">16 sept. 2015</CCN>
                                       <Libre2/>
                                    </RefCCN> ; <RefCCN Typemaj="0" Idref="CC203-1695" Type="CCOL" generatecontent="No">
                                       <Libre1>Accord Contrat de génération, </Libre1>
                                       <CCN Idref="CC203-1695" Ccnna="NON" Type="CCOL">16 sept. 2015</CCN>
                                       <Libre2/>
                                    </RefCCN>
                                 </Al>
                              </Entry>
                           </Row>
                           <Row Security="U">
                              <Entry Security="U">
                                 <Tetverticale Variation="Couleursecondaire" Typemaj="0">Gardes-chasse et gardes-pêche</Tetverticale>
                              </Entry>
                              <Entry Security="U">
                                 <Al Typemaj="0">
                                    <RefCCN Typemaj="0" Idref="CC559-31" Type="CCOL" generatecontent="No">
                                       <Libre1>CCN, </Libre1>
                                       <CCN Idref="CC559-31" Type="CCOL">art. 16</CCN>
                                       <Libre2/>
                                    </RefCCN>, <RefCCN Typemaj="0" Idref="CC559-71" Type="CCOL" generatecontent="No">
                                       <Libre1/>
                                       <CCN Idref="CC559-71" Type="CCOL">titre XI</CCN>
                                       <Libre2/>
                                    </RefCCN>
                                 </Al>
                              </Entry>
                           </Row>
                           <Row Security="U">
                              <Entry Security="U">
                                 <Tetverticale Variation="Couleursecondaire" Typemaj="0">Jardineries et graineteries</Tetverticale>
                              </Entry>
                              <Entry Security="U">
                                 <Al Typemaj="0">
                                    <RefCCN Typemaj="0" Idref="CC253-18" Type="CCOL" generatecontent="No">
                                       <Libre1>CCN, </Libre1>
                                       <CCN Idref="CC253-18" Type="CCOL">art. 2.5</CCN>
                                       <Libre2/>
                                    </RefCCN>, <RefCCN Typemaj="0" Idref="CC253-27" Type="CCOL" generatecontent="No">
                                       <Libre1/>
                                       <CCN Idref="CC253-27" Type="CCOL">3.3</CCN>
                                       <Libre2/>
                                    </RefCCN>, <RefCCN Typemaj="0" Idref="CC253-102" Type="CCOL" generatecontent="No">
                                       <Libre1/>
                                       <CCN Idref="CC253-102" Type="CCOL">titre IX</CCN>
                                       <Libre2/>
                                    </RefCCN> ; <RefCCN Typemaj="0" Idref="CC253-145" Type="CCOL" generatecontent="No">
                                       <Libre1/>
                                       <CCN Idref="CC253-145" Type="CCOL">Avenant cadres</CCN>
                                       <Libre2/>
                                    </RefCCN> ; <RefCCN Typemaj="0" Idref="CC253-422" Type="CCOL" generatecontent="No">
                                       <Libre1>Accord Observatoire prospectif des métiers, </Libre1>
                                       <CCN Idref="CC253-422" Type="CCOL">3 oct. 2007</CCN>
                                       <Libre2/>
                                    </RefCCN> ; <RefCCN Typemaj="0" Idref="CC253-662" Type="CCOL" generatecontent="No">
                                       <Libre1>Accord Adhésion au Fafsea, </Libre1>
                                       <CCN Idref="CC253-662" Type="CCOL">19 mai 2010</CCN>
                                       <Libre2/>
                                    </RefCCN> ; <RefCCN Typemaj="0" Idref="CC253-667" Type="CCOL" generatecontent="No">
                                       <Libre1>Accord Contributions, </Libre1>
                                       <CCN Idref="CC253-667" Ccnna="NON" Type="CCOL">22 sept. 2010</CCN>
                                       <Libre2/>
                                    </RefCCN> ; <RefCCN Typemaj="0" Idref="CC253-680" Type="CCOL" generatecontent="No">
                                       <Libre1>Avenant Professionnalisation, </Libre1>
                                       <CCN Idref="CC253-680" Type="CCOL">30 mars 2011</CCN>
                                       <Libre2/>
                                    </RefCCN> ; <RefCCN Typemaj="0" Idref="CC253-696" Type="CCOL" generatecontent="No">
                                       <Libre1>Avenant Égalité professionnelle, </Libre1>
                                       <CCN Idref="CC253-696" Type="CCOL">16 juin 2011</CCN>
                                       <Libre2/>
                                    </RefCCN> ; <RefCCN Typemaj="0" Idref="CC253-739" Type="CCOL" generatecontent="No">
                                       <Libre1>Accord Section paritaire sectorielle, </Libre1>
                                       <CCN Idref="CC253-739" Type="CCOL">18 nov. 2011</CCN>
                                       <Libre2/>
                                    </RefCCN> ; <RefCCN Typemaj="0" Idref="CC253-835" Type="CCOL" generatecontent="No">
                                       <Libre1>Accord Contrat de génération, </Libre1>
                                       <CCN Idref="CC253-835" Ccnna="NON" Type="CCOL">27 sept. 2013</CCN>
                                       <Libre2/>
                                    </RefCCN> 
                                    <AppelNT Typemaj="0" Num="(3)" IDREF="X5FPRO457-11NT3"/> ; <RefCCN Typemaj="0" Idref="CC253-897" Type="CCOL" generatecontent="No">
                                       <Libre1>Accord Formation et CPF, </Libre1>
                                       <CCN Idref="CC253-897" Ccnna="NON" Type="CCOL">25 sept. 2015</CCN>
                                       <Libre2/>
                                    </RefCCN>
                                 </Al>
                              </Entry>
                           </Row>
                           <Row Security="U">
                              <Entry Security="U">
                                 <Tetverticale Variation="Couleursecondaire" Typemaj="0">Lin : rouissage-teillage</Tetverticale>
                              </Entry>
                              <Entry Security="U">
                                 <Al Typemaj="0">
                                    <RefCCN Typemaj="0" Idref="CC259-640" Type="CCOL" generatecontent="No">
                                       <Libre1>CCN,</Libre1>
                                       <CCN Idref="CC259-640" Type="CCOL"> art. 38</CCN>
                                       <Libre2/>
                                    </RefCCN>, <RefCCN Typemaj="0" Idref="CC259-641" Type="CCOL" generatecontent="No">
                                       <Libre1/>
                                       <CCN Idref="CC259-641" Type="CCOL">39</CCN>
                                       <Libre2/>
                                    </RefCCN>, <RefCCN Typemaj="0" Idref="CC259-642" Type="CCOL" generatecontent="No">
                                       <Libre1/>
                                       <CCN Idref="CC259-642" Type="CCOL">40</CCN>
                                       <Libre2/>
                                    </RefCCN>, <RefCCN Typemaj="0" Idref="CC259-680" Type="CCOL" generatecontent="No">
                                       <Libre1/>
                                       <CCN Idref="CC259-680" Type="CCOL">62</CCN>
                                       <Libre2/>
                                    </RefCCN>, <RefCCN Typemaj="0" Idref="CC259-707" Type="CCOL" generatecontent="No">
                                       <Libre1/>
                                       <CCN Idref="CC259-707" Type="CCOL">70</CCN>
                                       <Libre2/>
                                    </RefCCN> ; <RefCCN Typemaj="0" Idref="CC259-822" Type="CCOL" generatecontent="No">
                                       <Libre1>Accords </Libre1>
                                       <CCN Idref="CC259-822" Type="CCOL">Formation des conducteurs des entreprises du rouissage teillage du lin</CCN>
                                       <Libre2/>
                                    </RefCCN>,<RefCCN Typemaj="0" Idref="CC259-894" Type="CCOL" generatecontent="No">
                                       <Libre1> </Libre1>
                                       <CCN Idref="CC259-894" Type="CCOL">Formation</CCN>
                                       <Libre2/>
                                    </RefCCN> ;<RefCCN Typemaj="0" Idref="CC259-1216" Type="CCOL" generatecontent="No">
                                       <Libre1> Avenant n<E>o</E> 23 Emploi des seniors, </Libre1>
                                       <CCN Idref="CC259-1216" Type="CCOL">18 nov. 2010</CCN>
                                       <Libre2/>
                                    </RefCCN> ; <RefCCN Typemaj="0" Idref="CC259-1323" Type="CCOL" generatecontent="No">
                                       <Libre1>Avenant n<E>o</E> 1 Égalité professionnelle, </Libre1>
                                       <CCN Idref="CC259-1323" Ccnna="NON" Type="CCOL">30 avr. 2014</CCN>
                                       <Libre2/>
                                    </RefCCN>
                                 </Al>
                              </Entry>
                           </Row>
                           <Row Security="U">
                              <Entry Security="U">
                                 <Tetverticale Variation="Couleursecondaire" Typemaj="0">Maisons familiales rurales</Tetverticale>
                              </Entry>
                              <Entry Security="U">
                                 <Al Typemaj="0">
                                    <RefCCN Typemaj="0" Idref="CC564-619" Type="CCOL" generatecontent="No">
                                       <Libre1>CCN, </Libre1>
                                       <CCN Idref="CC564-619" Ccnna="NON" Type="CCOL">art. XXIII</CCN>
                                       <Libre2/>
                                    </RefCCN>, <RefCCN Typemaj="0" Idref="CC564-624" Type="CCOL" generatecontent="No">
                                       <Libre1/>
                                       <CCN Idref="CC564-624" Ccnna="NON" Type="CCOL">XXVIII</CCN>
                                       <Libre2/>
                                    </RefCCN>, <RefCCN Typemaj="0" Idref="CC564-625" Type="CCOL" generatecontent="No">
                                       <Libre1/>
                                       <CCN Idref="CC564-625" Ccnna="NON" Type="CCOL">XXIX</CCN>
                                       <Libre2/>
                                    </RefCCN> ; <RefCCN Typemaj="0" Idref="CC564-363" Type="CCOL" generatecontent="No">
                                       <Libre1>Accord Mutualisation des contributions, </Libre1>
                                       <CCN Idref="CC564-363" Type="CCOL">3 juin 2004</CCN>
                                       <Libre2/>
                                    </RefCCN> ; <RefCCN Typemaj="0" Idref="CC564-405" Type="CCOL" generatecontent="No">
                                       <Libre1>Accord Formation, </Libre1>
                                       <CCN Idref="CC564-405" Type="CCOL">1<E>er</E> avr. 2005</CCN>
                                       <Libre2/>
                                    </RefCCN> ; <RefCCN Typemaj="0" Idref="CC564-688" Type="CCOL" generatecontent="No">
                                       <Libre1>Accord Maîtrise de moniteur de maisons familiales, </Libre1>
                                       <CCN Idref="CC564-688" Type="CCOL">30 mars 2010</CCN>
                                       <Libre2/>
                                    </RefCCN>
                                 </Al>
                              </Entry>
                           </Row>
                           <Row Security="U">
                              <Entry Security="U">
                                 <Tetverticale Variation="Couleursecondaire" Typemaj="0">Paysage : entreprises</Tetverticale>
                              </Entry>
                              <Entry Security="U">
                                 <Al Typemaj="0">
                                    <RefCCN Typemaj="0" Idref="CC694-72" Type="CCOL" generatecontent="No">
                                       <Libre1>CCN, clauses communes,</Libre1>
                                       <CCN Idref="CC694-72" Type="CCOL"> art. 35 à 37</CCN>
                                       <Libre2/>
                                    </RefCCN> ; <RefCCN Typemaj="0" Idref="CC694-400" Type="CCOL" generatecontent="No">
                                       <Libre1>Accord Formation, </Libre1>
                                       <CCN Idref="CC694-400" Ccnna="NON" Type="CCOL">3 févr. 2012</CCN>
                                       <Libre2/>
                                    </RefCCN> mod. par avenant n<E>o</E> 1, 13 févr. 2015 (CPF)</Al>
                              </Entry>
                           </Row>
                           <Row Security="U">
                              <Entry Security="U">
                                 <Tetverticale Typemaj="0" Variation="Couleursecondaire">Pêche de loisir et de protection du milieu aquatique : structures associatives</Tetverticale>
                              </Entry>
                              <Entry Security="U">
                                 <Al Typemaj="0">
                                    <RefCCN Typemaj="0" Idref="CC723-146" Type="CCOL" generatecontent="No">
                                       <Libre1>Accord Désignation de l’Opca, </Libre1>
                                       <CCN Idref="CC723-146" Ccnna="NON" Type="CCOL">22 juin 2013</CCN>
                                       <Libre2/>
                                    </RefCCN>
                                 </Al>
                              </Entry>
                           </Row>
                           <Row Security="U">
                              <Entry Security="U">
                                 <Tetverticale Variation="Couleursecondaire" Typemaj="0">Vins, cidres, jus de fruits</Tetverticale>
                              </Entry>
                              <Entry Security="U">
                                 <Al Typemaj="0">
                                    <RefCCN Typemaj="0" Idref="CC493-1396" Type="CCOL" generatecontent="No">
                                       <Libre1>CCN, </Libre1>
                                       <CCN Idref="CC493-1396" Type="CCOL">art. 17</CCN>
                                       <Libre2/>
                                    </RefCCN>, <RefCCN Typemaj="0" Idref="CC493-67" Type="CCOL" generatecontent="No">
                                       <Libre1/>
                                       <CCN Idref="CC493-67" Type="CCOL">34</CCN>
                                       <Libre2/>
                                    </RefCCN>, <RefCCN Typemaj="0" Idref="CC493-1195" Type="CCOL" generatecontent="No">
                                       <Libre1/>
                                       <CCN Idref="CC493-1195" Type="CCOL">34 bis </CCN>
                                       <Libre2>mod. par avenant n<E>o</E> 44, 5 août 2008, 50</Libre2>
                                    </RefCCN> ; <RefCCN Typemaj="0" Idref="CC493-145" Type="CCOL" generatecontent="No">
                                       <Libre1/>
                                       <CCN Idref="CC493-145" Type="CCOL">Annexes I</CCN>
                                       <Libre2/>
                                    </RefCCN>, <RefCCN Typemaj="0" Idref="CC493-356" Type="CCOL" generatecontent="No">
                                       <Libre1/>
                                       <CCN Idref="CC493-356" Type="CCOL">II</CCN>
                                       <Libre2/>
                                    </RefCCN>, <RefCCN Typemaj="0" Idref="CC493-386" Type="CCOL" generatecontent="No">
                                       <Libre1/>
                                       <CCN Idref="CC493-386" Type="CCOL">II bis</CCN>
                                       <Libre2/>
                                    </RefCCN>, <RefCCN Typemaj="0" Idref="CC493-994" Type="CCOL" generatecontent="No">
                                       <Libre1/>
                                       <CCN Idref="CC493-994" Type="CCOL">II ter</CCN>
                                       <Libre2/>
                                    </RefCCN>, <RefCCN Typemaj="0" Idref="CC493-662" Type="CCOL" generatecontent="No">
                                       <Libre1/>
                                       <CCN Idref="CC493-662" Type="CCOL">III bis </CCN>
                                       <Libre2>et </Libre2>
                                    </RefCCN>
                                    <RefCCN Typemaj="0" Idref="CC493-505" Type="CCOL" generatecontent="No">
                                       <Libre1/>
                                       <CCN Idref="CC493-505" Type="CCOL">V</CCN>
                                       <Libre2/>
                                    </RefCCN> ; <RefCCN Typemaj="0" Idref="CC493-911" Type="CCOL" generatecontent="No">
                                       <Libre1>Accords </Libre1>
                                       <CCN Idref="CC493-911" Type="CCOL">Création et reconnaissance des certificats de qualification professionnelle (CQP)</CCN>
                                       <Libre2/>
                                    </RefCCN>, RTT ; <RefCCN Typemaj="0" Idref="CC493-1558" Type="CCOL" generatecontent="No">
                                       <Libre1>Accord Égalité professionnelle, </Libre1>
                                       <CCN Idref="CC493-1558" Type="CCOL">22 févr. 2012</CCN>
                                       <Libre2/>
                                    </RefCCN>
                                 </Al>
                                 <Al Typemaj="0">
                                    <RefCCN Typemaj="0" Idref="CC493-2111" Type="CCOL" generatecontent="No">
                                       <Libre1>CCN révisée le 15 mars 2013, </Libre1>
                                       <CCN Idref="CC493-2111" Ccnna="NON" Type="CCOL">chap. VI</CCN>
                                       <Libre2/>
                                    </RefCCN> mod. par accord, 12 nov. 2015 (CPF)</Al>
                              </Entry>
                           </Row>
                           <Row Security="U">
                              <Entry Security="U">
                                 <Tetverticale Variation="Couleursecondaire" Typemaj="0">Zoos</Tetverticale>
                              </Entry>
                              <Entry Security="U">
                                 <Al Typemaj="0">
                                    <RefCCN Typemaj="0" Idref="CC569-443" Type="CCOL" generatecontent="No">
                                       <Libre1/>
                                       <CCN Idref="CC569-443" Ccnna="NON" Type="CCOL">CCN, chap. XVI</CCN>
                                       <Libre2/>
                                    </RefCCN> ; <RefCCN Typemaj="0" Idref="CC569-681" Type="CCOL" generatecontent="No">
                                       <Libre1>Accord Égalité professionnelle, </Libre1>
                                       <CCN Idref="CC569-681" Type="CCOL">28 juin 2012</CCN>
                                       <Libre2/>
                                    </RefCCN> ; <RefCCN Typemaj="0" Idref="CC569-904" Type="CCOL" generatecontent="No">
                                       <Libre1>Accord Contrat de génération, </Libre1>
                                       <CCN Idref="CC569-904" Ccnna="NON" Type="CCOL">17 sept. 2014</CCN>
                                       <Libre2/>
                                    </RefCCN> 
                                    <AppelNT Typemaj="0" Num="(4)" IDREF="X5FPRO457-11NT4"/>
                                 </Al>
                              </Entry>
                           </Row>
                           <Row Security="U">
                              <Entry Traith="Sans" Traitd="Sans" Security="U">
                                 <NT Num="(1)"
                                     ID="X5FPRO457-11NT1"
                                     xf:id="{historicalId:el_X5FPRO457-11NT1}"
                                     Typemaj="0">La CCN Champagne vise les entreprises dont l’activité principale est la champagnisation et/ou la commercialisation du champagne. Les entreprises dont l’activité principale est agricole (viticole) restent exclues du champ d’application de la présente convention. La CCN Champagne vise à adapter les diverses CCN étendues, notamment celle des vins et spiritueux qui couvrent une ou des activités ayant un champ professionnel plus large. S’agissant des entreprises de commerce de gros de boissons (code NAF 46.34 Z), elles n’entrent pas dans le champ d’application de cette CCN, sauf si leur activité commerciale est exclusivement ou majoritairement consacrée à la commercialisation de vins de champagne et que la commercialisation d’autres boissons n’est qu’accessoire.</NT>
                                 <NT Num="(2)"
                                     ID="X5FPRO457-11NT2"
                                     xf:id="{historicalId:el_X5FPRO457-11NT2}"
                                     Typemaj="0">Les entreprises de la conchyliculture n’appliquent aucun des accords nationaux de l’agriculture.</NT>
                                 <NT Num="(3)"
                                     ID="X5FPRO457-11NT3"
                                     xf:id="{historicalId:el_X5FPRO457-11NT3}"
                                     Typemaj="0">L’accord du 27 septembre 2013 est applicable pour une durée de 3 ans à compter du 1<E>er</E> octobre 2013.</NT>
                                 <NT Num="(4)"
                                     ID="X5FPRO457-11NT4"
                                     xf:id="{historicalId:el_X5FPRO457-11NT4}"
                                     Typemaj="0">L’accord du 17 septembre 2014 est applicable pour une durée de 3 ans à compter du 1<E>er</E> octobre 2015.</NT>
                                 <NT Num="(5)"
                                     ID="X5FPRO457-11NT5"
                                     xf:id="{historicalId:el_X5FPRO457-11NT5}"
                                     Typemaj="0">L’accord du 6 mai 2015 est applicable du 1<E>er</E> mai 2015 au 31 décembre 2017.</NT>
                                 <NT Num="(6)"
                                     ID="X5FPRO457-11NT6"
                                     xf:id="{historicalId:el_X5FPRO457-11NT6}"
                                     Typemaj="0">L’accord du 19 mai 2015 est applicable jusqu’au 21 juin 2018.</NT>
                                 <NT Num="(7)"
                                     ID="X5FPRO457-11NT7"
                                     xf:id="{historicalId:el_X5FPRO457-11NT7}"
                                     Typemaj="0">L’accord du 2 juin 2015 est applicable jusqu’au 31 décembre 2017.</NT>
                              </Entry>
                           </Row>
                        </Tbody>
                     </Tgroup>
                  </Table>
               </Tbl>
               <INT Typemaj="0">Dispositions conventionnelles relatives au compte personnel de formation</INT>
               <Dtif Typemaj="0">Agriculture : accord interbranches du 2 juin 2004 modifié par avenant n<E>o</E> 7 du 9 janvier 2015</Dtif>
               <Al Typemaj="0">(étendu par arr. 4 nov. 2015 : JO, 18 nov.)</Al>
               <Titre3 Typemaj="0">Alimentation</Titre3>
               <Al Typemaj="0">Un compte personnel de formation (CPF) est mis en place à partir du 1<E>er</E> janvier 2015 au profit de chaque salarié. Il est alimenté à hauteur de 24 heures par année travaillée à temps complet (base 1 607 heures) jusqu’à l’acquisition d’un crédit de 120 heures, puis de 12 heures par année travaillée à temps complet, dans la limite de 150 heures.</Al>
               <Al Typemaj="0">Si le salarié n’a pas effectué une durée du travail à temps complet sur l’ensemble de l’année, le nombre d’heures affectées au CPF est calculé au prorata de son temps de travail effectif (arrondi au chiffre supérieur en cas de décimal).</Al>
               <Al Typemaj="0">Pour le calcul des heures de CPF, est intégralement prise en compte la période d’absence pour congé de maternité, de paternité et d’accueil de l’enfant, d’adoption, de présence parentale, de soutien familial ou congé parental d’éducation, maladie professionnelle ou accident du travail.</Al>
               <Titre3 Typemaj="0">Formations éligibles</Titre3>
               <Al Typemaj="0">Pour mobiliser son CPF, le salarié a accès aux formations figurant sur les listes établies par :</Al>
               <Alpuce Typemaj="0">le comité paritaire interprofessionnel national pour l’emploi et la formation (Copanef) ;</Alpuce>
               <Alpuce Typemaj="0">les comités paritaires interprofessionnels régionaux pour l’emploi et la formation (Coparef) ;</Alpuce>
               <Alpuce Typemaj="0">la commission paritaire nationale de l’emploi (CPNE).</Alpuce>
               <Titre3 Typemaj="0">Modalités d’utilisation</Titre3>
               <Al Typemaj="0">En cas d’utilisation du CPF pendant le temps de travail, l’accord reprend les modalités prévues par le code du travail, notamment celles portant sur les délais de demande du salarié et de réponse de l’employeur.</Al>
               <Dtif Typemaj="0">Conchyliculture : accord du 3 février 2016</Dtif>
               <Titre3 Typemaj="0">Alimentation et abondements</Titre3>
               <Al Typemaj="0">Depuis le 1<E>er</E> janvier 2015, chaque salarié bénéficie d’un compte personnel de formation (CPF). A la fin de chaque année, ce compte est alimenté à hauteur de 24 heures de formation par année de travail à temps complet jusqu’à l’acquisition d’un crédit de 120 heures, puis de 12 heures par année de travail à temps complet, dans la limite d’un plafond total de 150 heures.</Al>
               <Al Typemaj="0">Pour les salariés n’ayant pas effectué une durée du travail à temps complet sur l’ensemble de l’année (salariés à temps partiel ou salariés en CDD), l’alimentation du compte est calculée à due proportion du temps de travail effectué.</Al>
               <Al Typemaj="0">Pour le calcul des heures acquises sur le CPF, sont intégralement prises en compte les périodes d’absence du salarié pour un congé de maternité, un congé de paternité et d’accueil de l’enfant, un congé d’adoption, un congé de présence parentale, un congé de soutien familial, un congé parental d’éducation, une maladie professionnelle ou un accident du travail.</Al>
               <Al Typemaj="0">Lorsque la durée de la formation envisagée est supérieure au nombre d’heures inscrites sur le CPF, le salarié peut bénéficier d’un financement d’heures complémentaires de la section paritaire professionnelle (SPP) Pêche et Cultures marines de l’Agefos-PME.</Al>
               <Al Typemaj="0">Par ailleurs, dans les entreprises de 50 salariés et plus, le CPF est abondé de 100 heures lorsque le salarié n’a pas bénéficié, au cours des 6 dernières années, des entretiens professionnels tous les 2 ans et d’au moins deux des trois mesures suivantes : suivi d’au moins une action de formation, acquisition d’éléments de certification par la formation ou par la validation des acquis de l’expérience (VAE), bénéfice d’une progression salariale ou professionnelle. Cet abondement est porté à 130 heures pour un salarié à temps partiel.</Al>
               <Titre3 Typemaj="0">Formations éligibles</Titre3>
               <Al Typemaj="0">Les formations éligibles au CPF sont :</Al>
               <Alpuce Typemaj="0">les formations permettant d’acquérir le socle de connaissances et de compétences certifiées par un organisme habilité ;</Alpuce>
               <Alpuce Typemaj="0">l’accompagnement à la VAE ;</Alpuce>
               <Alpuce Typemaj="0">les certifications inscrites au répertoire national des certifications professionnelles (ou une partie de certification classée au répertoire constituant un bloc de compétences) ;</Alpuce>
               <Alpuce Typemaj="0">les certificats de qualification professionnelle (CQP) ;</Alpuce>
               <Alpuce Typemaj="0">les certifications ou les habilitations inscrites à l’inventaire de la commission nationale de la certification professionnelle (CNCP).</Alpuce>
               <Al Typemaj="0">Les certifications mentionnées aux trois derniers points doivent figurer sur une liste établie par le comité paritaire interprofessionnel national pour l’emploi et la formation (Copanef), par les comités paritaires interprofessionnels régionaux pour l’emploi et la formation (Coparef) ou par la branche conchylicole.</Al>
               <Titre3 Typemaj="0">Modalités d’utilisation</Titre3>
               <Al Typemaj="0">En cas de mobilisation du CPF sur le temps de travail, l’accord reprend les délais de demande du salarié et de réponse de l’employeur prévus par le code du travail.</Al>
               <Dtif Typemaj="0">Crédit agricole : accord du 6 mai 2015</Dtif>
               <Titre3 Typemaj="0">Alimentation et abondement</Titre3>
               <Al Typemaj="0">Un compte personnel de formation (CPF) est ouvert pour tout salarié à compter du 1<E>er</E> janvier 2015. Conformément aux dispositions du code du travail, il est alimenté, à la fin de chaque année, à hauteur de 24 heures par année de travail à temps complet jusqu’à l’acquisition de 120 heures, puis de 12 heures par année de travail à temps complet, dans la limite de 150 heures.</Al>
               <Al Typemaj="0">Lorsque le salarié n’a pas effectué une durée du travail à temps complet sur l’ensemble de l’année, l’alimentation du compte s’effectue au prorata du temps de travail effectué.</Al>
               <Al Typemaj="0">Pour le calcul des heures de CPF, certaines absences sont intégralement prises en compte. Il s’agit du congé de maternité, du congé de paternité et d’accueil de l’enfant, du congé d’adoption, du congé de présence parentale, du congé de soutien familial, du congé parental d’éducation, des absences pour une maladie professionnelle ou un accident du travail.</Al>
               <Al Typemaj="0">Par ailleurs, lorsque la durée de la formation est supérieure au nombre d’heures inscrites sur le CPF du salarié, la caisse régionale peut décider d’abonder le compte en heures complémentaires. Cet abondement sera accordé, en priorité, aux salariés dont la qualification est inadaptée ou insuffisante ainsi qu’aux salariés occupant des emplois menacés par des évolutions économiques ou d’organisation. L’abondement sera également attribué en priorité pour les formations inscrites sur la liste des formations éligibles élaborée par la commission paritaire nationale de l’emploi et de la formation professionnelle (CPNEFP).</Al>
               <Titre3 Typemaj="0">Formations éligibles</Titre3>
               <Al Typemaj="0">Les formations suivantes sont éligibles au CPF :</Al>
               <Alpuce Typemaj="0">les formations permettant d’acquérir le socle de connaissances et de compétences ;</Alpuce>
               <Alpuce Typemaj="0">l’accompagnement à la validation des acquis de l’expérience (VAE) ;</Alpuce>
               <Alpuce Typemaj="0">les formations sanctionnées par une certification enregistrée dans le répertoire national des certifications professionnelles (RNCP) ou permettant d’obtenir une partie identifiée de certification professionnelle, classée au sein du répertoire, visant à l’acquisition d’un bloc de compétences ;</Alpuce>
               <Alpuce Typemaj="0">les formations sanctionnées par un certificat de qualification professionnelle (CQP) ;</Alpuce>
               <Alpuce Typemaj="0">les formations sanctionnées par les certifications inscrites à l’inventaire spécifique établi par la commission nationale de la certification professionnelle (CNCP), qui recense les certifications et habilitations correspondant à des compétences transversales.</Alpuce>
               <Al Typemaj="0">Les formations mentionnées aux trois derniers points doivent figurer sur au moins une des trois listes suivantes :</Al>
               <Alpuce Typemaj="0">la liste élaborée par la CPNEFP ;</Alpuce>
               <Alpuce Typemaj="0">la liste élaborée par le comité paritaire interprofessionnel national pour l’emploi et la formation (Copanef) ;</Alpuce>
               <Alpuce Typemaj="0">la liste élaborée par le comité paritaire interprofessionnel régional pour l’emploi et la formation (Coparef).</Alpuce>
               <Dtif Typemaj="0">Jardineries et graineteries : accord du 25 septembre 2015</Dtif>
               <Al Typemaj="0">(étendu par arr. 26 févr. 2016 : JO, 28 févr.)</Al>
               <Al Typemaj="0">A partir du 1<E>er</E> janvier 2015, chaque salarié dispose d’un compte personnel de formation (CPF). Ce compte est alimenté à hauteur de 24 heures par année de travail à temps complet dans la limite de 120 heures, puis de 12 heures par année de travail à temps complet dans la limite totale de 150 heures.</Al>
               <Al Typemaj="0">Pour les salariés à temps partiel, les droits à formation sont calculés à due proportion du temps de travail effectué. Toutefois, pour tout contrat de travail à temps partiel supérieur à 28 heures hebdomadaires, le salarié bénéficie d’un droit identique à celui d’un salarié à temps complet.</Al>
               <Al Typemaj="0">Lorsque le salarié cumule ses droits à 150 heures, il bénéficie automatiquement d’un abondement de 11 heures si la formation envisagée se déroule pendant le temps de travail et concerne une formation professionnelle liée à son emploi ou à celui sur lequel il souhaite évoluer dans l’entreprise. Cet abondement n’est pas pris en compte dans le calcul des heures créditées sur le CPF ni dans le plafond de 150 heures. Les heures complémentaires sont financées par l’Opca ou par l’entreprise si la prise en charge par l’Opca s’avère impossible. Les formations éligibles à l’abondement sont celles figurant sur la liste de branche établie par la commission paritaire nationale de l’emploi et de la formation professionnelle (CPNEFP). Toutefois, pour prétendre à un abondement, la formation envisagée doit être de niveau inférieur ou égal au niveau IV.</Al>
               <Al Typemaj="0">Par ailleurs, dans les entreprises d’au moins 50 salariés, les salariés doivent bénéficier d’un entretien professionnel tous les 2 ans et d’au moins deux des trois mesures suivantes : suivi d’une action de formation, acquisition d’éléments de certification par la formation ou la validation des acquis de l’expérience (VAE), bénéfice d’une progression salariale et/ou professionnelle. Si ce n’est pas le cas, le CPF est abondé de 100 heures pour un salarié à temps plein et de 130 heures pour un salarié à temps partiel. Cet abondement n’est pas pris en compte dans le plafond de 150 heures.</Al>
               <Dtif Typemaj="0">Paysage (entreprises) : avenant n<E>o</E> 1 du 13 février 2015</Dtif>
               <Al Typemaj="0">(étendu par arr. 7 juill. 2015 : JO, 14 juill.)</Al>
               <Titre3 Typemaj="0">Alimentation et abondements</Titre3>
               <Al Typemaj="0">A compter du 1<E>er</E> janvier 2015, chaque salarié bénéficie d’un compte personnel de formation (CPF). Pour les salariés à temps complet, ce compte est alimenté à raison de 24 heures par an dans la limite de 120 heures, puis de 12 heures par an dans la limite totale de 150 heures.</Al>
               <Al Typemaj="0">Lorsque le salarié n’a pas réalisé une durée de travail à temps complet sur l’ensemble de l’année, l’alimentation du compte se fait à due proportion du temps de travail effectué.</Al>
               <Al Typemaj="0">Pour le calcul des heures acquises au titre du CPF, sont prises en compte les absences pour un congé de maternité, de paternité et d’accueil de l’enfant, d’adoption, de présence parentale, de soutien familial ou un congé parental d’éducation ou pour une maladie professionnelle ou un accident du travail.</Al>
               <Al Typemaj="0">Dans les entreprises d’au moins 50 salariés, le CPF est abondé de 100 heures supplémentaires si le salarié n’a pas bénéficié des entretiens professionnels au moins une fois tous les 2 ans et d’au moins deux des trois mesures suivantes : suivi d’au moins une action de formation, acquisition d’éléments de certification par la formation ou par la validation des acquis de l’expérience (VAE), progression salariale ou professionnelle. Cet abondement est porté à 130 heures pour le salarié à temps partiel.</Al>
               <Titre3 Typemaj="0">Formations éligibles</Titre3>
               <Al Typemaj="0">Sont éligibles au CPF les formations permettant d’acquérir le socle des connaissances et des compétences ainsi que l’accompagnement à la VAE.</Al>
               <Al Typemaj="0">Les autres formations éligibles au CPF doivent figurer sur l’une des trois listes suivantes :</Al>
               <Alpuce Typemaj="0">la liste élaborée par la commission paritaire nationale de l’emploi agricole ;</Alpuce>
               <Alpuce Typemaj="0">la liste élaborée par le comité paritaire interprofessionnel national pour l’emploi et la formation (Copanef) ;</Alpuce>
               <Alpuce Typemaj="0">la liste élaborée par le comité paritaire interprofessionnel régional pour l’emploi et la formation (Coparef) de la région dans laquelle est implantée l’entreprise.</Alpuce>
               <Titre3 Typemaj="0">Modalités d’utilisation</Titre3>
               <Al Typemaj="0">En cas de mobilisation du CPF en tout ou partie pendant le temps de travail, le salarié doit faire sa demande auprès de l’employeur par écrit, en courrier recommandé avec accusé de réception ou par remise en main propre contre décharge, au minimum pour :</Al>
               <Alpuce Typemaj="0">les ouvriers et les employés, 60 jours avant le début de la formation ;</Alpuce>
               <Alpuce Typemaj="0">les techniciens et les agents de maîtrise, 60 jours avant le début de la formation en cas de durée inférieure à 6 mois, 90 jours avant le début de la formation dans les autres cas ;</Alpuce>
               <Alpuce Typemaj="0">les cadres, 60 jours avant le début de la formation en cas de durée inférieure à 6 mois, 120 jours avant le début de la formation dans les autres cas.</Alpuce>
               <Al Typemaj="0">A compter de la réception de la demande écrite, l’employeur dispose d’un délai de 30 jours calendaires pour notifier sa réponse. Il ne peut refuser toute demande de CPF au-delà d’une période de 24 mois de refus consécutifs.</Al>
               <Dtif Typemaj="0">Vins, cidres, jus de fruits : CCN, chap. VI modifié par accord du 12 novembre 2015</Dtif>
               <Al Typemaj="0">(étendu par arr. 3 mai 2016 ; JO, 11 mai)</Al>
               <Titre3 Typemaj="0">Alimentation et abondements</Titre3>
               <Al Typemaj="0">Depuis le 1<E>er</E> janvier 2015, un compte personnel de formation (CPF) est ouvert au profit de chaque salarié. A la fin de chaque année, le compte est alimenté en heures de formation à hauteur de 24 heures par année de travail à temps complet jusqu’à l’acquisition d’un crédit de 120 heures, puis à hauteur de 12 heures par année de travail à temps complet, dans la limite d’un plafond total de 150 heures.</Al>
               <Al Typemaj="0">Lorsque le salarié n’a pas effectué une durée du travail à temps complet sur l’ensemble de l’année, l’alimentation est calculée à due proportion du temps de travail effectué.</Al>
               <Al Typemaj="0">Dans les entreprises d’au moins 50 salariés, le CPF est abondé de 100 heures de formation supplémentaires lorsque le salarié n’a pas bénéficié, au cours des 6 dernières années, des entretiens professionnels tous les 2 ans et d’au moins deux des trois mesures suivantes : une action de formation, des éléments de certification acquis par la formation ou par la validation des acquis de l’expérience (VAE), une progression salariale ou professionnelle. Pour les salariés à temps partiel, cet abondement est porté à 130 heures de formation supplémentaires.</Al>
               <Titre3 Typemaj="0">Formations éligibles</Titre3>
               <Al Typemaj="0">Les formations éligibles au CPF sont :</Al>
               <Alpuce Typemaj="0">les formations permettant d’acquérir le socle de connaissances et de compétences ;</Alpuce>
               <Alpuce Typemaj="0">l’accompagnement à la VAE ;</Alpuce>
               <Alpuce Typemaj="0">les formations sanctionnées par une certification enregistrée dans le répertoire national des certifications professionnelles (RNCP) ou permettant d’obtenir une partie identifiée de certification professionnelle, classée au sein du répertoire, visant à l’acquisition d’un bloc de compétences ;</Alpuce>
               <Alpuce Typemaj="0">les formations sanctionnées par un certificat de qualification professionnelle (CQP) ;</Alpuce>
               <Alpuce Typemaj="0">les formations sanctionnées par les certifications inscrites à l’inventaire spécifique établi par la commission nationale de la certification professionnelle (CNCP).</Alpuce>
               <Al Typemaj="0">Les formations mentionnées aux trois derniers points doivent figurer sur au moins une des listes suivantes :</Al>
               <Alpuce Typemaj="0">la liste élaborée par la commission paritaire nationale de l’emploi (CPNE) des vins et spiritueux ;</Alpuce>
               <Alpuce Typemaj="0">la liste élaborée par le comité paritaire interprofessionnel national pour l’emploi et la formation (Copanef) ;</Alpuce>
               <Alpuce Typemaj="0">la liste élaborée par le comité paritaire interprofessionnel régional pour l’emploi et la formation (Coparef) de la région où travaille le salarié.</Alpuce>
               <Al Typemaj="0">La CPNE des vins et spiritueux met à jour, au moins une fois par an, la liste des formations et certifications éligibles au CPF qui présentent un intérêt pour le secteur.</Al>
               <Titre3 Typemaj="0">Modalités d’utilisation</Titre3>
               <Al Typemaj="0">La convention collective reprend les modalités prévues par le code du travail en cas d’utilisation du CPF en tout ou partie sur le temps de travail.</Al>
            </FPRO>
         </content>
      </contentNode>
   </body>
</editorialEntity>
