<?xml version="1.0" encoding="UTF-8"?><DPFORM2 xmlns="http://www.lefebvre-sarrut.eu/ns/el/fichesMT_MT" xmlns:xf="http://www.lefebvre-sarrut.eu/ns/xmlfirst" GB="GB25" MR="On" Theme="IDMTT14" Titre="4" Position="Corps" Eddversion="GB59_MT_EDD54" Type="2">
               <Titrefiche Typemaj="0">CPF : réponse de l’employeur</Titrefiche>
               <Al Typemaj="0">L’accord de l’employeur porte sur le contenu et le calendrier de la formation si elle se déroule en tout ou partie sur le temps de travail. Il porte uniquement sur le calendrier dans certains cas prévus par le code du travail comme, par exemple, pour le socle de connaissances et de compétences, pour l’accompagnement à la VAE et dans les cas prévus par un accord de branche, d’entreprise ou de groupe.</Al>
               <Expediteur>
                  <Precision Propagation="Z" Numpropagation="Z1" Carnet="dénomination sociale" Delimitation="Oui" Typemaj="0" IDPPG="Z1" Vue="Saisie"></Precision>
               </Expediteur>
               <Alexpediteur>
                  <Precision Propagation="Z" Numpropagation="Z6" Carnet="siège social/adresse" Delimitation="Oui" Typemaj="0" IDPPG="Z6" Vue="Saisie"></Precision>
               </Alexpediteur>
               <Date>
                  <Precision Delimitation="Oui" Typemaj="0" Vue="Saisie">lieu</Precision>, le <Precision Delimitation="Oui" Typemaj="0" Vue="Saisie">date</Precision>
                  <Appelcommentaire Idref="X5499-CMT1-C1" Num="1" Numero="1" Vue="Saisie" Typemaj="0"></Appelcommentaire>
               </Date>
               <Commentaire ID="X5499-CMT1-C1" xf:id="{historicalId:el_X5499-CMT1-C1}" Num="1" Typemaj="0">l’employeur dispose d’un délai d’un mois à compter de la demande du salarié pour répondre. L’absence de réponse vaut acceptation.</Commentaire>
               <Destinataire Typemaj="0">
                  <Precision Propagation="A" Numpropagation="A1" Carnet="prénom" Delimitation="Oui" Typemaj="0" IDPPG="A1" Vue="Saisie"></Precision> 
                  <Precision Propagation="A" Numpropagation="A2" Carnet="nom" Delimitation="Oui" Typemaj="0" IDPPG="A2" Vue="Saisie"></Precision>
               </Destinataire>
               <Aldestinataire>
                  <Precision Propagation="A" Numpropagation="A7" Carnet="adresse" Delimitation="Oui" Typemaj="0" IDPPG="A7" Vue="Saisie"></Precision>
               </Aldestinataire>
               <Typelettre Typemaj="0">Lettre recommandée avec AR<Appelcommentaire Idref="X5499-CMT1-C2" Num="2" Numero="2" Vue="Saisie" Typemaj="0"></Appelcommentaire>
               </Typelettre>
               <Commentaire ID="X5499-CMT1-C2" xf:id="{historicalId:el_X5499-CMT1-C2}" Num="2" Typemaj="0">bien que la loi ne le précise pas, il est souhaitable que l’employeur adresse sa réponse par lettre recommandée avec avis de réception.</Commentaire>
               <Al Typemaj="0">
                  <Precision Delimitation="Oui" Typemaj="0" Vue="Saisie">Madame/Monsieur</Precision>, </Al>
               <Blocoptions Delimitation="Oui">
                  <Titre Typemaj="0">Si l’entreprise accepte l’utilisation de son compte personnel de formation par le salarié :</Titre>
                  <Aloption Typemaj="0">Nous avons noté que vous demandez à utiliser votre compte personnel de formation pour <Precision Delimitation="Oui" Typemaj="0" Vue="Saisie">nombre heures</Precision> afin de suivre une formation se déroulant du <Precision Delimitation="Oui" Typemaj="0" Vue="Saisie">date</Precision> au <Precision Delimitation="Oui" Typemaj="0" Vue="Saisie">date</Precision>.</Aloption>
                  <Aloption Typemaj="0">Nous avons le plaisir de vous informer que nous acceptons votre demande.</Aloption>
                  <Aloption Typemaj="0">Cette formation se déroulera pendant votre temps de travail pour un nombre d’heures égal à <Precision Delimitation="Oui" Typemaj="0" Vue="Saisie">nombre d’heures</Precision>. Pendant ces heures, nous maintiendrons votre rémunération.</Aloption>
                  <Aloption Typemaj="0">Si l’organisme paritaire collecteur agréé (Opca), soit <Precision Delimitation="Oui" Typemaj="0" Vue="Saisie">mentionner le nom de cet organisme</Precision> refuse la prise en charge financière de votre formation, nous vous demandons de bien vouloir nous informer au plus vite de vos intentions<Appelcommentaire Idref="X5499-CMT1-C3" Num="3" Numero="3" Vue="Saisie"></Appelcommentaire>.</Aloption>
                  <Commentaire ID="X5499-CMT1-C3" xf:id="{historicalId:el_X5499-CMT1-C3}" Num="3" Typemaj="0">les formations suivies dans le cadre du CPF pendant le temps de travail donnent lieu au maintien de la rémunération par l’employeur. Lorsque le CPF est géré par l’Opca, la rémunération du salarié et les frais de formation peuvent être pris en charge, dans certaines limites, par cet organisme.</Commentaire>
                  <Blocajouts Delimitation="Oui">
                     <Titre Typemaj="0">Si la formation se déroule également en partie en dehors du temps de travail, ajouter éventuellement :</Titre>
                     <Alajout Typemaj="0">Nous avons également pris en compte que cette formation se déroulera en partie en dehors de votre temps de travail pour un nombre d’heures égal à <Precision Delimitation="Oui" Typemaj="0" Vue="Saisie">nombre d’heures</Precision>. Nous avons l’obligation de maintenir votre rémunération uniquement pendant les heures de formation se déroulant pendant votre temps de travail.</Alajout>
                  </Blocajouts>
                  <Titre Typemaj="0">Si l’entreprise refuse l’utilisation de son compte personnel de formation par le salarié : </Titre>
                  <Aloption Typemaj="0">Faisant suite à votre demande à utiliser votre compte personnel de formation pendant votre temps de travail, nous sommes au regret de vous informer que nous ne pouvons pas accéder à votre demande.</Aloption>
                  <Blocajouts Delimitation="Oui">
                     <Titre Typemaj="0">En cas de motivation du refus, ajouter éventuellement :</Titre>
                     <Alajout Typemaj="0">Notre décision s’appuie sur le motif suivant : <Precision Delimitation="Oui" Typemaj="0" Vue="Saisie">à compléter</Precision>
                        <Appelcommentaire Idref="X5499-CMT1-C4" Num="4" Numero="4" Vue="Saisie"></Appelcommentaire>.</Alajout>
                     <Commentaire ID="X5499-CMT1-C4" xf:id="{historicalId:el_X5499-CMT1-C4}" Num="4" Typemaj="0">le code du travail ne précise pas si l’employeur doit motiver son refus. Toutefois, il est préférable que l’employeur donne au salarié les raisons motivant sa décision. Cette obligation de motivation peut être prévue par l’accord collectif dont relève l’entreprise.</Commentaire>
                  </Blocajouts>
               </Blocoptions>
               <Al Typemaj="0">Nous vous prions d’agréer, <Precision Delimitation="Oui" Typemaj="0" Vue="Saisie">Madame/Monsieur</Precision>, l’expression de nos salutations distinguées.</Al>
               <Signature Typemaj="0">L’employeur</Signature>
               <Alsignature Typemaj="0">
                  <Precision Propagation="B" Numpropagation="B1" Carnet="prénom" Delimitation="Oui" Typemaj="0" IDPPG="B1" Vue="Saisie"></Precision> 
                  <Precision Propagation="B" Numpropagation="B2" Carnet="nom" Delimitation="Oui" Typemaj="0" IDPPG="B2" Vue="Saisie"></Precision>
               </Alsignature>
               <Alsignature Typemaj="0">
                  <Precision Propagation="B" Numpropagation="B3" Carnet="qualité" Delimitation="Oui" Typemaj="0" IDPPG="B3" Vue="Saisie"></Precision>
               </Alsignature>
               <Signaturemasque Typemaj="0">Signature</Signaturemasque>
               <Titrepapl Typemaj="0">
                  <Ill>
                     <Image Align="aleft" Angle="0.000" Bloffset="-0.610in" Cropped="0" Float="0" Height="0.504in" Nsoffset="-0.768in" Position="sleft" Width="0.759in" Impang="0.000" Impby="Ref" Impsize="0.759in 0.504in" Sideways="0" Xoffset="0.000in" Yoffset="0.000in" entity="Image1"></Image>
                  </Ill> 
               </Titrepapl>
               <Alpapl>Sur le compte personnel de formation (CPF), <Renvoi Type="FP" Inline="Oui" Typemaj="0">
                     <Fiche Idref="X5F488" Partie="pratiques" Numfiche="68" Nbr="PLU"></Fiche> et s.</Renvoi>
               </Alpapl>
               <Alpapl>Pour une demande d’utilisation de son CPF par un salarié, <Renvoi Type="M" Inline="Oui" Typemaj="0">
                     <Fiche Idref="X5M498" Numfiche="29" Nbr="SING" fmcssattr="15"></Fiche>
                  </Renvoi>.</Alpapl>
            </DPFORM2>