<?xml version="1.0" encoding="UTF-8"?><body xmlns="http://www.w3.org/1999/xhtml" data-xfe-label="FPRO" class="FPRO">
               <div data-xfe-label="Titrefiche" class="Titrefiche">Le contrat de génération</div>
               <p data-xfe-label="Al" data-xml-Typemaj="0">Le contrat de génération, mis en place pour lutter contre le chômage et la précarité, touche en priorité les deux extrêmes de la pyramide des âges : les plus jeunes et les plus âgés. Ce n’est pas une nouvelle forme de contrat de travail, mais un dispositif d’aide à l’embauche associé au contrat de droit commun. Une aide uniquement pour les entreprises de moins de 300 salariés qui sont couvertes par un accord d’entreprise ou un plan d’action sur ce dispositif. Pour les autres, aucune aide en vue ; le dispositif est plutôt coercitif puisqu’assorti d’une pénalité financière à défaut de négociation.</p>
               <div data-xfe-label="Ti1" class="Ti1">Les principes de base du dispositif « contrat de génération »</div>
               <div data-xfe-label="Ti2" class="Ti2">Employeurs concernés</div>
               <p data-xfe-label="Al" data-xml-Typemaj="0">Le contrat de génération peut être mis en œuvre par l’ensemble des employeurs de droit privé, dont les associations, ainsi que par les établissements publics industriels et commerciaux (EPIC) d’au moins 300 salariés.</p>
               <p data-xfe-label="Al" data-xml-Typemaj="0">La loi ne prévoit en effet aucune aide pour les EPIC de moins de 300 salariés. En revanche, elle prévoit bien l’application de la pénalité pour ceux qui emploient plus de 300 salariés.</p>
               <p data-xfe-label="Al" data-xml-Typemaj="0">L’État, les collectivités territoriales et les établissements publics administratifs ne peuvent pas recourir au contrat de génération.</p>
               <div data-xfe-label="Ti2" class="Ti2">Un triple objectif</div>
               <p data-xfe-label="Al" data-xml-Typemaj="0">Le contrat de génération  est un dispositif spécifique d’incitation à l’embauche, centré sur les profils identifiés comme étant les plus fragiles face à l’emploi (les plus jeunes et les plus âgés) qui répond à un triple objectif <span data-xfe-label="Refcode" class="Refcode" data-xml-Type="ART" data-xml-Code="PXCT2" data-xml-Typemaj="0">
                     <span data-xfe-label="Xacode" class="Xacode" data-xml-Num="5121-6" data-xml-Type="L" data-xml-fmcssattr="15" href="" data-xfe-xf_idRef="query:typeEE=source.texte.article:parent.code=PXCT2:parent.num=L-5121-6"></span>
                  </span> :</p>
               <div data-xfe-label="Alpuce" class="Alpuce" data-xml-Typemaj="0">faciliter l’insertion durable des jeunes dans l’emploi en leur donnant accès à un CDI ;</div>
               <div data-xfe-label="Alpuce" class="Alpuce" data-xml-Typemaj="0">favoriser l’embauche et le maintien dans l’emploi des personnes âgées ;</div>
               <div data-xfe-label="Alpuce" class="Alpuce" data-xml-Typemaj="0">assurer la transmission des savoirs et des compétences.</div>
               <p data-xfe-label="Al" data-xml-Typemaj="0">L’incitation est d’abord de nature financière mais lorsque l’entreprise est soumise à l’obligation de négocier un accord ou d’adopter un plan d’action (à partir de 50 salariés), elle doit aussi prendre des engagements en matière de formation et d’accompagnement, de manière à assurer des savoirs et des compétences entre ses salariés seniors et les jeunes embauchés.</p>
               <div data-xfe-label="Ti2" class="Ti2">Embaucher un jeune, maintenir un senior</div>
               <p data-xfe-label="Al" data-xml-Typemaj="0">Le contrat de génération concerne les jeunes âgés de 16 à 26 ans (30 ans pour ceux ayant la reconnaissance de travailleur handicapé).</p>
               <p data-xfe-label="Al" data-xml-Typemaj="0">Pour chaque jeune qu’elle embauche, l’entreprise doit s’engager à maintenir dans l’emploi un senior d’au moins 57 ans (55 ans s’il dispose de la reconnaissance de travailleur handicapé). Elle peut aussi recruter ce senior. Dans ce cas, la condition d’âge est abaissée : il doit avoir au moins 55 ans au moment de l’embauche.</p>
               <p data-xfe-label="Al" data-xml-Typemaj="0">Il est également possible de constituer un binôme entre un jeune et un chef d’entreprise dans la perspective d’une transmission d’entreprise. Les mêmes bornes d’âge s’appliquent à ce cas de figure.</p>
               <div data-xfe-label="Ti1" class="Ti1">Trois modalités de mise en œuvre selon la taille de l’entreprise</div>
               <div data-xfe-label="Ti2" class="Ti2">Aide pour les petites, contrainte pour les autres</div>
               <p data-xfe-label="Al" data-xml-Typemaj="0">Le contrat de génération est un dispositif assorti de mesures incitatives (aide financière) ou contraignantes (pénalité) dont la mise en œuvre est fonction de la taille de l’entreprise ou du groupe <span data-xfe-label="Refcode" class="Refcode" data-xml-Type="ART" data-xml-Code="PXCT2" data-xml-Typemaj="0">
                     <span data-xfe-label="Xacode" class="Xacode" data-xml-Num="5121-7" data-xml-Type="L" data-xml-fmcssattr="15" href="" data-xfe-xf_idRef="query:typeEE=source.texte.article:parent.code=PXCT2:parent.num=L-5121-7"></span> et s.</span> (voir tableau ci-après).</p>
               <div data-xfe-label="Tbl" class="Tbl" data-xml-Typemaj="0" data-xml-Type="Type3" id="T8FPRO557-1">
                  <div class="table blocTableau">
                     <table class="tgroup cals_cals cals_frametopbot cals_orient full_width_table "><colgroup><col style="width:NaN%;" /><col style="width:NaN%;" /><col style="width:NaN%;" /></colgroup><thead>
                           <tr class="cals_odd">
                              <td class="cals_colsep cals_rowsep cals_alignleft ">
                                 <div data-xfe-label="Tet1niv" class="Tet1niv" data-xml-Variation="Couleur secondaire" data-xml-Typemaj="0">Taille de l’entreprise</div>
                              </td>
                              <td class="cals_colsep cals_rowsep cals_alignleft ">
                                 <div data-xfe-label="Tet1niv" class="Tet1niv" data-xml-Variation="Couleur secondaire" data-xml-Typemaj="0">Taille du groupe</div>
                              </td>
                              <td class="cals_colsep cals_rowsep cals_alignleft ">
                                 <div data-xfe-label="Tet1niv" class="Tet1niv" data-xml-Variation="Couleur secondaire" data-xml-Typemaj="0">Aide/pénalité</div>
                              </td>
                           </tr>
                        </thead><tbody>
                           <tr class="cals_odd">
                              <td class="cals_colsep cals_rowsep cals_alignleft " rowspan="3">
                                 <p data-xfe-label="Al" data-xml-Typemaj="0">Moins de 50 salariés</p>
                              </td>
                              <td class="cals_colsep cals_rowsep cals_alignleft ">
                                 <p data-xfe-label="Al" data-xml-Typemaj="0">Jusqu’à 49 salariés inclus</p>
                              </td>
                              <td class="cals_colsep cals_rowsep cals_alignleft ">
                                 <p data-xfe-label="Al" data-xml-Typemaj="0">Aide à l’embauche sans obligation de négocier.</p>
                              </td>
                           </tr>
                           <tr class="cals_even">
                              <td class="cals_colsep cals_rowsep cals_alignleft ">
                                 <p data-xfe-label="Al" data-xml-Typemaj="0">De 50 à 299 salariés inclus</p>
                              </td>
                              <td class="cals_colsep cals_rowsep cals_alignleft ">
                                 <p data-xfe-label="Al" data-xml-Typemaj="0">Aide à l’embauche sous réserve d’être couverte par un accord d’entreprise, de groupe ou de branche ou par un plan d’action.</p>
                              </td>
                           </tr>
                           <tr class="cals_odd">
                              <td class="cals_colsep cals_rowsep cals_alignleft ">
                                 <p data-xfe-label="Al" data-xml-Typemaj="0">300 salariés et plus</p>
                              </td>
                              <td class="cals_colsep cals_rowsep cals_alignleft ">
                                 <p data-xfe-label="Al" data-xml-Typemaj="0">Pas d’aide.</p>
                                 <p data-xfe-label="Al" data-xml-Typemaj="0">Pénalité due en l’absence d’accord d’entreprise, de groupe ou de branche ou de plan d’action.</p>
                              </td>
                           </tr>
                           <tr class="cals_even">
                              <td class="cals_colsep cals_rowsep cals_alignleft " rowspan="2">
                                 <p data-xfe-label="Al" data-xml-Typemaj="0">De 50 à 299 salariés inclus</p>
                              </td>
                              <td class="cals_colsep cals_rowsep cals_alignleft ">
                                 <p data-xfe-label="Al" data-xml-Typemaj="0">De 50 à 299 salariés inclus</p>
                              </td>
                              <td class="cals_colsep cals_rowsep cals_alignleft ">
                                 <p data-xfe-label="Al" data-xml-Typemaj="0">Aide à l’embauche sous réserve d’être couverte par un accord d’entreprise, de groupe ou de branche ou par un plan d’action.</p>
                              </td>
                           </tr>
                           <tr class="cals_odd">
                              <td class="cals_colsep cals_rowsep cals_alignleft ">
                                 <p data-xfe-label="Al" data-xml-Typemaj="0">300 salariés et plus</p>
                              </td>
                              <td class="cals_colsep cals_rowsep cals_alignleft ">
                                 <p data-xfe-label="Al" data-xml-Typemaj="0">Pas d’aide.</p>
                                 <p data-xfe-label="Al" data-xml-Typemaj="0">Pénalité due en l’absence d’accord d’entrepise, de groupe ou de branche ou de plan d’action.</p>
                              </td>
                           </tr>
                           <tr class="cals_even">
                              <td class="cals_colsep cals_alignleft ">
                                 <p data-xfe-label="Al" data-xml-Typemaj="0">300 salariés et plus</p>
                              </td>
                              <td class="cals_colsep cals_alignleft ">
                                 <p data-xfe-label="Al" data-xml-Typemaj="0">300 salariés et plus</p>
                              </td>
                              <td class="cals_colsep cals_alignleft ">
                                 <p data-xfe-label="Al" data-xml-Typemaj="0">Pas d’aide.</p>
                                 <p data-xfe-label="Al" data-xml-Typemaj="0">Pénalité due en l’absence d’accord d’entreprise, de groupe ou de branche ou de plan d’action.</p>
                              </td>
                           </tr>
                        </tbody></table>
                  </div>
               </div>
               <div data-xfe-label="Ti2" class="Ti2">Calcul des effectifs</div>
               <div data-xfe-label="Titre3" class="Titre3" data-xml-Typemaj="0">Date d’appréciation</div>
               <p data-xfe-label="Al" data-xml-Typemaj="0">Les effectifs sont appréciés chaque année au 31 décembre, tous établissements confondus, en faisant la moyenne sur l’année civile des effectifs de chaque mois <span data-xfe-label="Refcode" class="Refcode" data-xml-Type="ART" data-xml-Code="PXCT2" data-xml-Typemaj="0">
                     <span data-xfe-label="Xacode" class="Xacode" data-xml-Num="5121-26" data-xml-Type="R" data-xml-fmcssattr="15" href="" data-xfe-xf_idRef="query:typeEE=source.texte.article:parent.code=PXCT2:parent.num=R-5121-26"></span>
                  </span>.</p>
               <p data-xfe-label="Al" data-xml-Typemaj="0">Si l’entreprise a été créée en cours d’année, l’effectif à retenir est l’effectif moyen sur chacun des mois d’existence de la première année.</p>
               <p data-xfe-label="Al" data-xml-Typemaj="0">Du fait du caractère annuel de ce calcul, les entreprises franchissant les seuils de 50 ou de 300 salariés en cours d’année n’ont pas à se mettre immédiatement en conformité avec la loi, mais disposent d’un délai.</p>
               <div data-xfe-label="Titre3" class="Titre3" data-xml-Typemaj="0">Modalités de calcul</div>
               <p data-xfe-label="Al" data-xml-Typemaj="0">Il faut tenir compte de chaque salarié sous contrat de travail le dernier jour de chaque mois et des salariés absents. Les apprentis, les CAE, les CIE, les emplois d’avenir et les contrats de professionnalisation ne sont pas pris en compte. Les salariés en CDI sont intégralement pris en compte. Les salariés en CDD, les intérimaires, les travailleurs intermittents ou mis à disposition depuis au moins 1 an sont décomptés dans l’effectif au prorata de leur temps de présence sur les 12 mois précédents.</p>
               <div data-xfe-label="Ti1" class="Ti1">La négociation</div>
               <div data-xfe-label="Ti2" class="Ti2">Un préalable : faire un diagnostic</div>
               <p data-xfe-label="Al" data-xml-Typemaj="0">Avant d’entamer la négociation d’un accord sur le contrat de génération (négociation intergénérationnelle), l’entreprise doit établir un diagnostic sur sa propre situation <span data-xfe-label="Refcode" class="Refcode" data-xml-Type="ART" data-xml-Code="PXCT2" data-xml-Typemaj="0">
                     <span data-xfe-label="Xacode" class="Xacode" data-xml-Num="5121-10" data-xml-Type="L" data-xml-fmcssattr="15" href="" data-xfe-xf_idRef="query:typeEE=source.texte.article:parent.code=PXCT2:parent.num=L-5121-10"></span> et <span data-xfe-label="Xacodes" class="Xacodes" data-xml-Num="5121-12" data-xml-Type="L" href="" data-xfe-xf_idRef="query:typeEE=source.texte.article:parent.code=PXCT2:parent.num=L-5121-12"></span>
                  </span>. Ce diagnostic peut être réalisé au niveau du groupe auquel appartient l’entreprise.</p>
               <p data-xfe-label="Al" data-xml-Typemaj="0">Il s’appuie sur celui qui est effectué pour déterminer les objectifs à atteindre et les mesures à prendre en matière d’égalité professionnelle entre les hommes et les femmes.</p>
               <p data-xfe-label="Al" data-xml-Typemaj="0">Le diagnostic comporte plusieurs éléments <span data-xfe-label="Refcode" class="Refcode" data-xml-Type="ART" data-xml-Code="PXCT2" data-xml-Typemaj="0">
                     <span data-xfe-label="Xacode" class="Xacode" data-xml-Num="5121-27" data-xml-Type="D" data-xml-fmcssattr="15" href="" data-xfe-xf_idRef="query:typeEE=source.texte.article:parent.code=PXCT2:parent.num=D-5121-27"></span>
                  </span> :</p>
               <div data-xfe-label="Alpuce" class="Alpuce" data-xml-Typemaj="0">la pyramide des âges de l’entreprise ;</div>
               <div data-xfe-label="Alpuce" class="Alpuce" data-xml-Typemaj="0">les caractéristiques des jeunes et des seniors, leur place dans l’entreprise, le groupe ou la branche au cours des trois dernières années ;</div>
               <div data-xfe-label="Alpuce" class="Alpuce" data-xml-Typemaj="0">les prévisions de départ à la retraite ;</div>
               <div data-xfe-label="Alpuce" class="Alpuce" data-xml-Typemaj="0">les perspectives de recrutement ;</div>
               <div data-xfe-label="Alpuce" class="Alpuce" data-xml-Typemaj="0">les compétences clé de l’entreprise, celles qu’elle doit impérativement conserver et transmettre pour assurer sa pérennité ;</div>
               <div data-xfe-label="Alpuce" class="Alpuce" data-xml-Typemaj="0">les conditions de travail des salariés âgés et les situations de pénibilité identifiées, le cas échéant, dans l’accord ou le plan d’action pour la prévention de la pénibilité qui est applicable dans l’entreprise.</div>
               <div data-xfe-label="Ti2" class="Ti2">Négocier un accord ou mettre en place un plan d’action</div>
               <div data-xfe-label="Titre3" class="Titre3" data-xml-Typemaj="0">Négocier, une phase incontournable</div>
               <p data-xfe-label="Al" data-xml-Typemaj="0">Priorité est donnée à la négociation collective et à la conclusion d’un accord collectif d’entreprise ou de groupe pour les entreprises qui appartiennent à un groupe (accord conclu pour une durée maximale de 3 ans).</p>
               <p data-xfe-label="Al" data-xml-Typemaj="0">A défaut d’accord de ce type, les entreprises de moins de 300 salariés, ou appartenant à un groupe de moins de 300 salariés, peuvent mettre en place un plan d’action (voir ci-après). A défaut, elles peuvent aussi appliquer un accord de branche étendu.</p>
               <p data-xfe-label="Al" data-xml-Typemaj="0">Attention ! Les entreprises ou les groupes de 300 salariés et plus ne peuvent pas se prévaloir d’un accord de branche étendu pour échapper à la pénalité.</p>
               <p data-xfe-label="Al" data-xml-Typemaj="0">L’accord doit être négocié avec les délégués syndicaux (DS). Si les parties ne parviennent pas à s’entendre sur un accord, il faut constater cet échec par procès-verbal de désaccord. Ce PV doit être signé par les parties en présence, mentionner les dates des réunions qui se sont tenues, exposer les propositions respectives des parties et les points de désaccord.</p>
               <p data-xfe-label="Al" data-xml-Typemaj="0">Dans les entreprises dépourvues de DS (moins de 200 salariés), l’employeur peut choisir de négocier avec les représentants du personnel (représentants élus du CE, DUP ou, à défaut, délégués du personnel) (dans cette hypothèse, en cas d’échec des négociations, un PV de désaccord doit aussi être dressé). S’il n’y a pas de représentants élus, il peut négocier avec des salariés mandatés.</p>
               <p data-xfe-label="Al" data-xml-Typemaj="0">Mais l’employeur n’est pas obligé de négocier avec les représentants du personnel ou les salariés mandatés ; il peut opter directement pour l’élaboration d’un plan d’action unilatéral.</p>
               <div data-xfe-label="Titre3" class="Titre3" data-xml-Typemaj="0">Un plan d’action si les négociations échouent</div>
               <p data-xfe-label="Al" data-xml-Typemaj="0">Le plan d’action recense les mesures que l’employeur entend mettre en œuvre unilatéralement. Les thèmes qu’il contient sont les mêmes que ceux prévus pour les accords collectifs (voir ci-après). L’élaboration du plan d’action doit être précédée du diagnostic sur la situation de l’emploi des jeunes et des seniors.</p>
               <p data-xfe-label="Al" data-xml-Typemaj="0">A noter que si la négociation d’un accord de groupe était recherchée mais s’est soldée par un PV de désaccord, un plan d’action doit être élaboré : il est établi au niveau de l’entreprise et non du groupe.</p>
               <p data-xfe-label="Al" data-xml-Typemaj="0">Une fois élaboré, le plan d’action doit être soumis à l’avis du CE ou, à défaut, des délégués du personnel.</p>
               <div data-xfe-label="Ti2" class="Ti2">Contenu de l’accord ou du plan d’action</div>
               <div data-xfe-label="Titre3" class="Titre3" data-xml-Typemaj="0">Dispositions générales</div>
               <p data-xfe-label="Al" data-xml-Typemaj="0">L’accord ou le plan d’action doit comporter un objectif général d’égalité entre hommes et femmes et de mixité des emplois. Il doit également fixer les tranches d’âge des jeunes et des seniors concernés par les engagements pris par l’employeur.</p>
               <p data-xfe-label="Al" data-xml-Typemaj="0">L’entreprise doit transmettre à la Direccte une fiche descriptive de l’accord ou du plan qu’elle a conclu et dont le modèle a été fixé par arrêté <span data-xfe-label="Reftexte" class="Reftexte" data-xml-Typemaj="0">
                     <span data-xfe-label="Fixe" class="Fixe" data-xml-Idbr="643727">Arr. 26 avr. 2013, NOR : ETSD1311307A</span> : JO, 8 mai</span>.</p>
               <div data-xfe-label="Titre3" class="Titre3" data-xml-Typemaj="0">L’insertion des jeunes</div>
               <p data-xfe-label="Al" data-xml-Typemaj="0">L’accord ou le plan d’action doit comporter un certain nombre d’indicateurs tels que :</p>
               <div data-xfe-label="Alpuce" class="Alpuce" data-xml-Typemaj="0">les objectifs chiffrés de l’entreprise, du groupe ou de la branche en matière de recrutement de jeunes en CDI ;</div>
               <div data-xfe-label="Alpuce" class="Alpuce" data-xml-Typemaj="0">les modalités d’intégration, de formation et d’accompagnement des jeunes dans l’entreprise (parcours d’accueil, désignation d’un référent...) ;</div>
               <div data-xfe-label="Alpuce" class="Alpuce" data-xml-Typemaj="0">les modalités de mise en œuvre d’un entretien de suivi entre le jeune et son référent ;</div>
               <div data-xfe-label="Alpuce" class="Alpuce" data-xml-Typemaj="0">les modalités de recours aux contrats d’alternance et aux stages...</div>
               <div data-xfe-label="Titre3" class="Titre3" data-xml-Typemaj="0">L’emploi des seniors</div>
               <p data-xfe-label="Al" data-xml-Typemaj="0">L’accord ou le plan doit au minimum comporter :</p>
               <div data-xfe-label="Alpuce" class="Alpuce" data-xml-Typemaj="0">des objectifs chiffrés de l’entreprise, du groupe ou de la branche en matière d’embauche et de maintien dans l’emploi des salariés âgés ;</div>
               <div data-xfe-label="Alpuce" class="Alpuce" data-xml-Typemaj="0">des mesures d’amélioration des conditions de travail et de prévention de la pénibilité (adaptation des postes de travail…).</div>
               <div data-xfe-label="Titre3" class="Titre3" data-xml-Typemaj="0">La transmission des savoirs</div>
               <p data-xfe-label="Al" data-xml-Typemaj="0">L’accord doit préciser les modalités retenues pour organiser la transmission des savoirs et des compétences, qui peuvent être :</p>
               <div data-xfe-label="Alpuce" class="Alpuce" data-xml-Typemaj="0">la mise en place de binômes d’échange de compétences entre des salariés expérimentés et des jeunes ayant acquis une première expérience professionnelle dans l’entreprise ;</div>
               <div data-xfe-label="Alpuce" class="Alpuce" data-xml-Typemaj="0">l’organisation de la pluralité des âges au sein des équipes de travail.</div>
               <div data-xfe-label="Ti2" class="Ti2">L’accord ou le plan est contrôlé par la Direccte</div>
               <p data-xfe-label="Al" data-xml-Typemaj="0">L’entreprise doit transmettre l’accord ou le plan d’action (ainsi que le diagnostic préalable et l’éventuel PV de désaccord) à la Direccte dont elle relève, qui va effectuer un contrôle de conformité <span data-xfe-label="Refcode" class="Refcode" data-xml-Type="ART" data-xml-Code="PXCT2" data-xml-Typemaj="0">
                     <span data-xfe-label="Xacode" class="Xacode" data-xml-Num="5121-13" data-xml-Type="L" data-xml-fmcssattr="15" href="" data-xfe-xf_idRef="query:typeEE=source.texte.article:parent.code=PXCT2:parent.num=L-5121-13"></span>
                  </span>. </p>
               <p data-xfe-label="Al" data-xml-Typemaj="0">S’il est déclaré non conforme, l’entreprise (ou le groupe) de 300 salariés et plus encourt une pénalité.</p>
               <div data-xfe-label="Ti1" class="Ti1">Aides et pénalités</div>
               <div data-xfe-label="Ti2" class="Ti2">Une aide pour les entreprises ou les groupes de moins de 300 salariés</div>
               <div data-xfe-label="Titre3" class="Titre3" data-xml-Typemaj="0">Les conditions à remplir</div>
               <p data-xfe-label="Al" data-xml-Typemaj="0">Pour bénéficier de l’aide d’État, l’entreprise doit associer le maintien dans l’emploi (ou le recrutement) d’un senior avec l’embauche d’un jeune en CDI ou en contrat d’apprentissage (pas forcément sur le même site) <span data-xfe-label="Refcode" class="Refcode" data-xml-Type="ART" data-xml-Code="PXCT2" data-xml-Typemaj="0">
                     <span data-xfe-label="Xacode" class="Xacode" data-xml-Num="5121-17" data-xml-Type="L" data-xml-fmcssattr="15" href="" data-xfe-xf_idRef="query:typeEE=source.texte.article:parent.code=PXCT2:parent.num=L-5121-17"></span>
                  </span> :</p>
               <div data-xfe-label="Alpuce" class="Alpuce" data-xml-Typemaj="0">le senior doit être âgé de moins de 57 ans (moins de 55 ans s’il est recruté dans le cadre du dispositif ou s’il bénéficie de la reconnaissance de travailleur handicapé) ;</div>
               <div data-xfe-label="Alpuce" class="Alpuce" data-xml-Typemaj="0">le jeune doit être âgé de 16 à 26 ans (30 ans s’il bénéficie de la reconnaissance de travailleur handicapé) : cette condition s’apprécie au premier jour d’exécution du contrat <span data-xfe-label="Refcode" class="Refcode" data-xml-Type="ART" data-xml-Code="PXCT2" data-xml-Typemaj="0">
                     <span data-xfe-label="Xacode" class="Xacode" data-xml-Num="5121-42" data-xml-Type="D" data-xml-fmcssattr="15" href="" data-xfe-xf_idRef="query:typeEE=source.texte.article:parent.code=PXCT2:parent.num=D-5121-42"></span>
                  </span>.</div>
               <p data-xfe-label="Al" data-xml-Typemaj="0">L’entreprise peut aussi embaucher en CDI un jeune qu’elle employait déjà en CDD, en contrat d’apprentissage ou en contrat de professionnalisation. Dans ce cas, la condition d’âge est satisfaite si ce jeune avait moins de 26 ans à son embauche dans le cadre de ce précédent contrat (même s’il a plus de 26 ans lors de l’embauche en CDI).</p>
               <div data-xfe-label="Titre3" class="Titre3" data-xml-Typemaj="0">Une embauche à temps plein</div>
               <p data-xfe-label="Al" data-xml-Typemaj="0">Autre condition : qu’il soit directement recruté en CDI ou recruté en CDI à la suite d’un CDD, d’un contrat d’apprentissage ou d’un contrat de professionnalisation, le jeune doit être embauché à temps plein. </p>
               <p data-xfe-label="Al" data-xml-Typemaj="0">Par dérogation, il peut être recruté à temps partiel sous réserve que ce temps partiel représente au moins 80 % d’un temps plein. En deçà, l’aide peut être supprimée.</p>
               <p data-xfe-label="Al" data-xml-Typemaj="0">Le senior peut, lui, travailler à temps partiel.</p>
               <div data-xfe-label="Titre3" class="Titre3" data-xml-Typemaj="0">Une aide attribuée pour 3 ans, de 4 000<span data-xfe-label="Veuro" class="Veuro"> e</span> par an et par binôme</div>
               <p data-xfe-label="Al" data-xml-Typemaj="0">2 000<span data-xfe-label="Veuro" class="Veuro"> e</span> sont attribués au titre du jeune et 2 000<span data-xfe-label="Veuro" class="Veuro"> e</span> du senior, soit un total de 4 000<span data-xfe-label="Veuro" class="Veuro"> e</span> par an et 12 000<span data-xfe-label="Veuro" class="Veuro"> e</span> sur trois ans. Ce montant est proratisé en fonction de la durée de travail des salariés concernés, en cas de diminution de la durée du travail du jeune ou du senior en cours de trimestre et en cas d’embauche ou de départ de l’un d’eux en cours de trimestre.</p>
               <p data-xfe-label="Al" data-xml-Typemaj="0">Elle est versée sur demande de l’employeur par Pôle Emploi, chaque trimestre civil.</p>
               <p data-xfe-label="Al" data-xml-Typemaj="0">L’aide n’est pas cumulable avec les autres aides à l’insertion, à l’accès ou au retour à l’emploi versées par l’État, hormis celles dont bénéficie le contrat de professionnalisation <span data-xfe-label="Refcode" class="Refcode" data-xml-Type="ART" data-xml-Code="PXCT2" data-xml-Typemaj="0">
                     <span data-xfe-label="Xacode" class="Xacode" data-xml-Num="5121-43" data-xml-Type="R" data-xml-fmcssattr="15" href="" data-xfe-xf_idRef="query:typeEE=source.texte.article:parent.code=PXCT2:parent.num=R-5121-43"></span>
                  </span>.</p>
               <p data-xfe-label="Al" data-xml-Typemaj="0">L’entreprise doit remplir plusieurs conditions pour en bénéficier <span data-xfe-label="Refcode" class="Refcode" data-xml-Type="ART" data-xml-Code="PXCT2" data-xml-Typemaj="0">
                     <span data-xfe-label="Xacode" class="Xacode" data-xml-Num="5121-17" data-xml-Type="L" data-xml-fmcssattr="15" href="" data-xfe-xf_idRef="query:typeEE=source.texte.article:parent.code=PXCT2:parent.num=L-5121-17"></span>
                  </span> :</p>
               <div data-xfe-label="Alpuce" class="Alpuce" data-xml-Typemaj="0">être à jour de ses obligations déclaratives et de paiement des cotisations et contributions Urssaf ;</div>
               <div data-xfe-label="Alpuce" class="Alpuce" data-xml-Typemaj="0">ne pas avoir, dans les 6 mois précédant l’embauche, licencié pour motif économique sur des postes de la même catégorie professionnelle que celui sur lequel l’embauche est prévue ;</div>
               <div data-xfe-label="Alpuce" class="Alpuce" data-xml-Typemaj="0">ne pas avoir, dans les 6 mois précédant l’embauche, licencié pour un motif autre que la faute grave ou lourde ou ne pas avoir conclu de rupture conventionnelle sur le poste pour lequel l’embauche est prévue.</div>
               <div data-xfe-label="Titre3" class="Titre3" data-xml-Typemaj="0">Conditions à remplir et démarches à effectuer pour obtenir l’aide</div>
               <p data-xfe-label="Al" data-xml-Typemaj="0">L’employeur dépose une demande d’aide à Pôle emploi dans les 3 mois qui suivent le premier jour d’exécution du contrat de travail <span data-xfe-label="Refcode" class="Refcode" data-xml-Type="ART" data-xml-Code="PXCT2" data-xml-Typemaj="0">
                     <span data-xfe-label="Xacode" class="Xacode" data-xml-Num="5121-45" data-xml-Type="R" data-xml-fmcssattr="15" href="" data-xfe-xf_idRef="query:typeEE=source.texte.article:parent.code=PXCT2:parent.num=R-5121-45"></span>
                  </span>. </p>
               <p data-xfe-label="Al" data-xml-Typemaj="0">Ensuite, au terme de chaque trimestre civil suivant celui de la demande initiale, il transmet une déclaration d’actualisation à Pôle emploi. Cette déclaration doit être transmise dans le mois qui suit le trimestre civil pour lequel l’aide est demandée. A défaut, elle n’est pas due pour le trimestre concerné. Si l’employeur n’actualise pas durant deux trimestres consécutifs, l’aide est interrompue dans sa totalité <span data-xfe-label="Refcode" class="Refcode" data-xml-Type="ART" data-xml-Code="PXCT2" data-xml-Typemaj="0">
                     <span data-xfe-label="Xacode" class="Xacode" data-xml-Num="5121-47" data-xml-Type="R" data-xml-fmcssattr="15" href="" data-xfe-xf_idRef="query:typeEE=source.texte.article:parent.code=PXCT2:parent.num=R-5121-47"></span>
                  </span>.</p>
               <div data-xfe-label="Titre3" class="Titre3" data-xml-Typemaj="0">Événements pouvant entraîner la suspension ou la suppression de l’aide</div>
               <p data-xfe-label="Al" data-xml-Typemaj="0"> L’aide peut être suspendue si le contrat de travail de l’un ou l’autre des membres du binôme est lui-même suspendu, sans maintien de salaire, pendant au moins 30 jours consécutifs au cours du trimestre civil (ex. : maladie, maternité). L’aide n’est alors pas due pour ce trimestre <span data-xfe-label="Refcode" class="Refcode" data-xml-Type="ART" data-xml-Code="PXCT2" data-xml-Typemaj="0">
                     <span data-xfe-label="Xacode" class="Xacode" data-xml-Num="5121-48" data-xml-Type="R" data-xml-fmcssattr="15" href="" data-xfe-xf_idRef="query:typeEE=source.texte.article:parent.code=PXCT2:parent.num=R-5121-48"></span>
                  </span>.</p>
               <p data-xfe-label="Al" data-xml-Typemaj="0">L’aide peut aussi être supprimée si <span data-xfe-label="Refcode" class="Refcode" data-xml-Type="ART" data-xml-Code="PXCT2" data-xml-Typemaj="0">
                     <span data-xfe-label="Xacode" class="Xacode" data-xml-Num="5121-46" data-xml-Type="R" data-xml-fmcssattr="15" href="" data-xfe-xf_idRef="query:typeEE=source.texte.article:parent.code=PXCT2:parent.num=R-5121-46"></span>
                  </span> :</p>
               <div data-xfe-label="Alpuce" class="Alpuce" data-xml-Typemaj="0">le binôme jeune/senior est rompu (y compris par démission) ;</div>
               <div data-xfe-label="Alpuce" class="Alpuce" data-xml-Typemaj="0">un senior n’appartenant pas à un binôme est licencié (dans ce cas, l’entreprise perd la dernière aide qui lui a été accordée au titre du contrat de génération) ;</div>
               <div data-xfe-label="Alpuce" class="Alpuce" data-xml-Typemaj="0">la durée de travail du jeune passe à moins de 80 % d’un temps plein ;</div>
               <div data-xfe-label="Alpuce" class="Alpuce" data-xml-Typemaj="0">l’entreprise n’actualise pas les données qu’elle déclare ou ne produit pas les justificatifs exigés par Pôle emploi (déclaration d’actualisation).</div>
               <p data-xfe-label="Al" data-xml-Typemaj="0">Notons également que si le montant de l’aide est inférieur à 50<span data-xfe-label="Veuro" class="Veuro"> e</span>, l’aide n’est pas due.</p>
               <div data-xfe-label="Ti2" class="Ti2">Une pénalité au-delà de 300 salariés</div>
               <div data-xfe-label="Titre3" class="Titre3" data-xml-Typemaj="0">Mise en demeure préalable</div>
               <p data-xfe-label="Al" data-xml-Typemaj="0">La pénalité ne s’applique qu’aux entreprises et aux groupes d’au moins 300 salariés qui, au 30 septembre 2013, n’ont pas conclu d’accord ni adopté de plan d’action ou dont l’accord ou le plan d’action ont été déclarés non conformes par la Direccte. </p>
               <p data-xfe-label="Al" data-xml-Typemaj="0">Au préalable, celle-ci met toutefois l’entreprise en demeure de régulariser sa situation (conclure ou régulariser l’accord ou le plan) <span data-xfe-label="Refcode" class="Refcode" data-xml-Type="ART" data-xml-Code="PXCT2" data-xml-Typemaj="0">
                     <span data-xfe-label="Xacode" class="Xacode" data-xml-Num="5121-14" data-xml-Type="L" data-xml-fmcssattr="15" href="" data-xfe-xf_idRef="query:typeEE=source.texte.article:parent.code=PXCT2:parent.num=L-5121-14"></span>
                  </span>. Selon l’ampleur des régularisations à opérer, elle peut pour cela disposer d’un délai allant jusqu’à 6 mois à compter de la réception de la mise en demeure. Si elle n’y parvient pas, elle doit en justifier les raisons. A l’issue de ce délai, la Direccte statue sur la suite à donner.</p>
               <p data-xfe-label="Al" data-xml-Typemaj="0">Attention : compte tenu du faible nombre d’accords et plans d’action déposés à la mi-septembre, le ministre du travail a invité les Direccte à faire preuve de souplesse et, tout en rappelant la date butoir du 30 septembre, à laisser aux entreprises concernées « quelques semaines de plus » pour achever les négociations déjà engagées au 30 septembre. Cette tolérance est laissée à l’appréciation de la Direccte, en fonction de la situation particulière de chaque entreprise. Elle n’est pas accordée aux entreprises qui, au 30 septembre, n’ont entamé aucune négociation.</p>
               <div data-xfe-label="Titre3" class="Titre3" data-xml-Typemaj="0">Montant de la pénalité</div>
               <p data-xfe-label="Al" data-xml-Typemaj="0">Si la mise en demeure n’est pas suivie d’effet, la Direccte peut infliger une pénalité correspondant au plus élevé de ces deux montants <span data-xfe-label="Refcode" class="Refcode" data-xml-Type="ART" data-xml-Code="PXCT2" data-xml-Typemaj="0">
                     <span data-xfe-label="Xacode" class="Xacode" data-xml-Num="5121-14" data-xml-Type="L" data-xml-fmcssattr="15" href="" data-xfe-xf_idRef="query:typeEE=source.texte.article:parent.code=PXCT2:parent.num=L-5121-14"></span>
                  </span> :</p>
               <div data-xfe-label="Alpuce" class="Alpuce" data-xml-Typemaj="0">1 % des rémunérations versées aux salariés sur la période pendant laquelle l’entreprise n’était pas couverte par un accord ou un plan d’action ;</div>
               <div data-xfe-label="Alpuce" class="Alpuce" data-xml-Typemaj="0">10 % du montant de la réduction Fillon pour les rémunérations versées sur la période pendant laquelle l’entreprise n’était pas couverte par un accord ou un plan d’action.</div>
               <p data-xfe-label="Al" data-xml-Typemaj="0">La Direccte peut moduler le montant de la pénalité due en fonction du degré de non-conformité de l’accord ou du plan d’action, des efforts constatés chez l’employeur pour régulariser sa situation ou de la santé économique et financière de l’entreprise.</p>
               <div data-xfe-label="Titre3" class="Titre3" data-xml-Typemaj="0">Paiement de la pénalité due</div>
               <p data-xfe-label="Al" data-xml-Typemaj="0">La pénalité est calculée par l’employeur en fonction d’un taux qui lui est communiqué par la Direccte. Elle est due pour chaque mois entier au cours duquel l’entreprise n’est pas couverte par un accord ni par un plan. Cette pénalité est versée à l’Urssaf (ou à la MSA s’il relève du régime agricole). L’entreprise doit en déclarer le montant sur ses bordereaux Urssaf et payer le montant correspondant. Pour ce faire, elle doit utiliser le code type personnel (CTP) 221 : PENA.CONTRAT GEN.</p>
               <p data-xfe-label="Al" data-xml-Typemaj="0">Elle est recouvrée selon les mêmes modalités que l’ancienne « pénalité senior ».</p>
               <div data-xfe-label="Titre3" class="Titre3" data-xml-Typemaj="0">Pénalité pour défaut d’évaluation annuelle</div>
               <p data-xfe-label="Al" data-xml-Typemaj="0">L’employeur doit assurer un suivi annuel de l’accord ou du plan d’action. </p>
               <p data-xfe-label="Al" data-xml-Typemaj="0">Chaque année, il doit transmettre un document d’évaluation à la Direccte, aux délégués syndicaux et aux représentants du personnel. S’il ne le fait pas ou s’il transmet un document incomplet, il encourt une pénalité de 1 500<span data-xfe-label="Veuro" class="Veuro"> e</span> par mois entier de retard. L’entreprise doit reporter cette pénalité sur son bordereau récapitulatif de cotisations Urssaf et s’acquitter du montant correspondant. La pénalité doit être déclarée sous le CTP 231 : PENA.ABS.DOC.EVAL.</p>
               <div data-xfe-label="Ti2" class="Ti2">Aide à la conception</div>
               <p data-xfe-label="Al" data-xml-Typemaj="0">Dans le cadre de « conventions d’aide au conseil », l’État peut prendre en charge jusqu’à 70 % des coûts de recours à un organisme de conseil externe <span data-xfe-label="Refcode" class="Refcode" data-xml-Type="ART" data-xml-Code="PXCT2" data-xml-Typemaj="0">
                     <span data-xfe-label="Xacode" class="Xacode" data-xml-Num="5121-6" data-xml-Type="D" data-xml-fmcssattr="15" href="" data-xfe-xf_idRef="query:typeEE=source.texte.article:parent.code=PXCT2:parent.num=D-5121-6"></span>
                  </span>.</p>
               <div data-xfe-label="OBS" class="OBS" data-xml-Type="Zoneobs" id="T8FPRO557-2">
                  <div class="table blocTableau">
                     <table class="tgroup cals_cals cals_framenone cals_orient full_width_table "><colgroup><col style="width:NaN%;" /><col style="width:NaN%;" /><col style="width:NaN%;" /></colgroup><tbody>
                           <tr class="cals_odd">
                              <td class="cals_alignleft "></td>
                              <td class="cals_alignleft "></td>
                              <td class="cals_alignleft "></td>
                           </tr>
                           <tr class="cals_even">
                              <td class="cals_alignleft "></td>
                              <td class="cals_alignleft ">
                                 <div data-xfe-label="Titreobservation" class="Titreobservation" data-xml-Typemaj="0"> </div>
                                 <p data-xfe-label="Al" data-xml-Typemaj="0">Sur les exonérations et contrats aidés, <span data-xfe-label="Renvoi" class="Renvoi" data-xml-Type="M" data-xml-Typemaj="0" data-xml-Produit="GBNEW" data-xml-Inline="Oui">
                                       <span data-xfe-label="Fiche" class="Fiche" data-xml-Idref="T8M503" data-xml-Partie="Modèle" data-xml-Titre="Tableau récapitulatif des exonérations sociales et des contrats aidés" data-xml-Theme="Maîtriser la masse salariale de l'entreprise" data-xml-Numfiche="24" data-xml-Nbr="SING" data-xml-fmcssattr="9"></span>
                                    </span>
                                 </p>
                                 <p data-xfe-label="Al" data-xml-Typemaj="0">Sur les contrats aidés, voir Guide Recrutement et gestion des carrières.</p>
                              </td>
                              <td class="cals_alignleft "></td>
                           </tr>
                           <tr class="cals_odd">
                              <td class="cals_alignleft "></td>
                              <td class="cals_alignleft "></td>
                              <td class="cals_alignleft "></td>
                           </tr>
                           <tr class="cals_even">
                              <td class="cals_alignleft "></td>
                              <td class="cals_alignleft "></td>
                              <td class="cals_alignleft "></td>
                           </tr>
                        </tbody></table>
                  </div>
               </div>
            </body>