<?xml version="1.0" encoding="UTF-8"?>
<testsuites>
   <testsuite tests="1"
              failures="0"
              errors="0"
              skipped="0"
              package="_xspec.override-xslt"
              name="XFE &gt; xfe-test : : xfe-test.xml &gt; xfe-test.html">
      <testcase classname="_xfe-XML2HTML.xsl__XFE-test.xspec"
                name="xfe-test.html"
                time="0"/>
   </testsuite>
</testsuites>
