<?xml version="1.0" encoding="UTF-8"?>
<testsuites>
   <testsuite tests="6"
              failures="0"
              errors="0"
              skipped="0"
              package="el"
              name="Scenario for testing template with match '/DPFORM2''">
      <testcase classname="fichesMT-EL2editorialEntity.xspec"
                name="editorialEntity"
                time="0"/>
      <testcase classname="fichesMT-EL2editorialEntity.xspec"
                name="metaData"
                time="0"/>
      <testcase classname="fichesMT-EL2editorialEntity.xspec"
                name="systemTitle"
                time="0"/>
      <testcase classname="fichesMT-EL2editorialEntity.xspec"
                name="contenu systemAbstract"
                time="0"/>
      <testcase classname="fichesMT-EL2editorialEntity.xspec" name="body" time="0"/>
      <testcase classname="fichesMT-EL2editorialEntity.xspec"
                name="namespace content"
                time="0"/>
   </testsuite>
</testsuites>
