<?xml version="1.0" encoding="UTF-8"?>
<testsuites>
   <testsuite tests="1"
              failures="0"
              errors="0"
              skipped="0"
              package="el"
              name="Scenario for testing function normalizeType: ART">
      <testcase classname="normalisationEL.xspec" name="''" time="0"/>
   </testsuite>
   <testsuite tests="1"
              failures="0"
              errors="0"
              skipped="0"
              package="el"
              name="Scenario for testing function normalizeType: L">
      <testcase classname="normalisationEL.xspec" name="''" time="0"/>
   </testsuite>
   <testsuite tests="1"
              failures="0"
              errors="0"
              skipped="0"
              package="el"
              name="Scenario for testing function normalizeType: R">
      <testcase classname="normalisationEL.xspec" name="''" time="0"/>
   </testsuite>
   <testsuite tests="1"
              failures="0"
              errors="0"
              skipped="0"
              package="el"
              name="Scenario for testing function normalizeType: D">
      <testcase classname="normalisationEL.xspec" name="''" time="0"/>
   </testsuite>
   <testsuite tests="1"
              failures="0"
              errors="0"
              skipped="0"
              package="el"
              name="Scenario for testing function normalizeType: Circ">
      <testcase classname="normalisationEL.xspec" name="''" time="0"/>
   </testsuite>
   <testsuite tests="1"
              failures="0"
              errors="0"
              skipped="0"
              package="el"
              name="Scenario for testing function normalizeType: Arr">
      <testcase classname="normalisationEL.xspec" name="''" time="0"/>
   </testsuite>
   <testsuite tests="1"
              failures="0"
              errors="0"
              skipped="0"
              package="el"
              name="Scenario for testing function normalizeType: Cass. soc.">
      <testcase classname="normalisationEL.xspec" name="''" time="0"/>
   </testsuite>
   <testsuite tests="1"
              failures="0"
              errors="0"
              skipped="0"
              package="el"
              name="Scenario for testing function normalizeType: Cass. autres.">
      <testcase classname="normalisationEL.xspec" name="''" time="0"/>
   </testsuite>
   <testsuite tests="1"
              failures="0"
              errors="0"
              skipped="0"
              package="el"
              name="Scenario for testing function normalizeType: Rép">
      <testcase classname="normalisationEL.xspec" name="''" time="0"/>
   </testsuite>
   <testsuite tests="1"
              failures="0"
              errors="0"
              skipped="0"
              package="el"
              name="Scenario for testing function normalizeType: Rép">
      <testcase classname="normalisationEL.xspec" name="''" time="0"/>
   </testsuite>
   <testsuite tests="1"
              failures="0"
              errors="0"
              skipped="0"
              package="el"
              name="Scenario for testing function normalizeType: Rép">
      <testcase classname="normalisationEL.xspec" name="''" time="0"/>
   </testsuite>
   <testsuite tests="1"
              failures="0"
              errors="0"
              skipped="0"
              package="el"
              name="Scenario for testing function normalizeType: CA">
      <testcase classname="normalisationEL.xspec" name="''" time="0"/>
   </testsuite>
   <testsuite tests="1"
              failures="0"
              errors="0"
              skipped="0"
              package="el"
              name="Scenario for testing function normalizeType: CAA">
      <testcase classname="normalisationEL.xspec" name="''" time="0"/>
   </testsuite>
   <testsuite tests="1"
              failures="0"
              errors="0"
              skipped="0"
              package="el"
              name="Scenario for testing function normalizeType: ANI">
      <testcase classname="normalisationEL.xspec" name="''" time="0"/>
   </testsuite>
   <testsuite tests="1"
              failures="0"
              errors="0"
              skipped="0"
              package="el"
              name="Scenario for testing function normalizeType: ANIA">
      <testcase classname="normalisationEL.xspec" name="''" time="0"/>
   </testsuite>
   <testsuite tests="1"
              failures="0"
              errors="0"
              skipped="0"
              package="el"
              name="Scenario for testing function normalizeType: Autre">
      <testcase classname="normalisationEL.xspec" name="''" time="0"/>
   </testsuite>
   <testsuite tests="3"
              failures="0"
              errors="0"
              skipped="0"
              package="el"
              name="Scenario for testing function createMetadataFromString">
      <testcase classname="normalisationEL.xspec" name="meta" time="0"/>
      <testcase classname="normalisationEL.xspec" name="code" time="0"/>
      <testcase classname="normalisationEL.xspec" name="meta" time="0"/>
   </testsuite>
   <testsuite tests="3"
              failures="0"
              errors="0"
              skipped="0"
              package="el"
              name="Scenario for testing function createMetadataFromElement">
      <testcase classname="normalisationEL.xspec" name="meta" time="0"/>
      <testcase classname="normalisationEL.xspec" name="code" time="0"/>
      <testcase classname="normalisationEL.xspec" name="value" time="0"/>
   </testsuite>
</testsuites>
